%YAML 1.1
%TAG !u! tag:unity3d.com,2011:
--- !u!1 &1196247974088106
GameObject:
  m_ObjectHideFlags: 0
  m_CorrespondingSourceObject: {fileID: 0}
  m_PrefabInstance: {fileID: 0}
  m_PrefabAsset: {fileID: 0}
  serializedVersion: 6
  m_Component:
  - component: {fileID: 4133029787660532}
  - component: {fileID: 114203474425088848}
  - component: {fileID: 120827243805602862}
  - component: {fileID: 114102700686190618}
  - component: {fileID: 114225980339285346}
  - component: {fileID: 114917070612713698}
  - component: {fileID: 5571717125842689191}
  m_Layer: 0
  m_Name: ParabolicTeleportPointer
  m_TagString: Untagged
  m_Icon: {fileID: 0}
  m_NavMeshLayer: 0
  m_StaticEditorFlags: 0
  m_IsActive: 1
--- !u!4 &4133029787660532
Transform:
  m_ObjectHideFlags: 0
  m_CorrespondingSourceObject: {fileID: 0}
  m_PrefabInstance: {fileID: 0}
  m_PrefabAsset: {fileID: 0}
  m_GameObject: {fileID: 1196247974088106}
  m_LocalRotation: {x: 0, y: 0, z: 0, w: 1}
  m_LocalPosition: {x: 0, y: 0, z: 0}
  m_LocalScale: {x: 1, y: 1, z: 1}
  m_Children:
  - {fileID: 4736427770665110}
  m_Father: {fileID: 0}
  m_RootOrder: 0
  m_LocalEulerAnglesHint: {x: 0, y: 0, z: 0}
--- !u!114 &114203474425088848
MonoBehaviour:
  m_ObjectHideFlags: 0
  m_CorrespondingSourceObject: {fileID: 0}
  m_PrefabInstance: {fileID: 0}
  m_PrefabAsset: {fileID: 0}
  m_GameObject: {fileID: 1196247974088106}
  m_Enabled: 1
  m_EditorHideFlags: 0
  m_Script: {fileID: 11500000, guid: 61c488a46c144ae189c60c29dc72b3b5, type: 3}
  m_Name: 
  m_EditorClassIdentifier: 
  lineStartClamp: 0.0001
  lineEndClamp: 0.9999
  customLineTransform: {fileID: 4736427770665110}
  loops: 0
  transformMode: 1
  rotationMode: 1
  flipUpVector: 0
  originOffset: {x: 0, y: 0, z: 0}
  manualUpVectorBlend: 0
  manualUpVectors:
  - {x: 0, y: 1, z: 0}
  - {x: 0, y: 1, z: 0}
  - {x: 0, y: 1, z: 0}
  velocitySearchRange: 0.02
  distorters:
  - {fileID: 114225980339285346}
  distortionEnabled: 1
  distortionMode: 0
  distortionStrength:
    serializedVersion: 2
    m_Curve:
    - serializedVersion: 3
      time: 0
      value: 1
      inSlope: 0
      outSlope: 0
      tangentMode: 0
      weightedMode: 0
      inWeight: 0
      outWeight: 0
    - serializedVersion: 3
      time: 1
      value: 1
      inSlope: 0
      outSlope: 0
      tangentMode: 0
      weightedMode: 0
      inWeight: 0
      outWeight: 0
    m_PreInfinity: 2
    m_PostInfinity: 2
    m_RotationOrder: 4
  uniformDistortionStrength: 1
  startPoint:
    position: {x: 0, y: 0, z: 0}
    rotation: {x: 0, y: 0, z: 0, w: 1}
  direction: {x: 0, y: 0, z: 1}
  velocity: 2
  distanceMultiplier: 1
  useCustomGravity: 0
  gravity: {x: 0, y: -9.8, z: 0}
--- !u!120 &120827243805602862
LineRenderer:
  m_ObjectHideFlags: 0
  m_CorrespondingSourceObject: {fileID: 0}
  m_PrefabInstance: {fileID: 0}
  m_PrefabAsset: {fileID: 0}
  m_GameObject: {fileID: 1196247974088106}
  m_Enabled: 1
  m_CastShadows: 0
  m_ReceiveShadows: 1
  m_DynamicOccludee: 1
  m_MotionVectors: 0
  m_LightProbeUsage: 0
  m_ReflectionProbeUsage: 0
  m_RayTracingMode: 0
  m_RayTraceProcedural: 0
  m_RenderingLayerMask: 4294967295
  m_RendererPriority: 0
  m_Materials:
  - {fileID: 2100000, guid: 11727442de02c1d4b8d37a063c748aec, type: 2}
  m_StaticBatchInfo:
    firstSubMesh: 0
    subMeshCount: 0
  m_StaticBatchRoot: {fileID: 0}
  m_ProbeAnchor: {fileID: 0}
  m_LightProbeVolumeOverride: {fileID: 0}
  m_ScaleInLightmap: 1
  m_ReceiveGI: 1
  m_PreserveUVs: 0
  m_IgnoreNormalsForChartDetection: 0
  m_ImportantGI: 0
  m_StitchLightmapSeams: 0
  m_SelectedEditorRenderState: 3
  m_MinimumChartSize: 4
  m_AutoUVMaxDistance: 0.5
  m_AutoUVMaxAngle: 89
  m_LightmapParameters: {fileID: 0}
  m_SortingLayerID: 0
  m_SortingLayer: 0
  m_SortingOrder: 0
  m_Positions:
  - {x: 0, y: -0.00000004905, z: 0.0002}
  - {x: 0, y: -0.001250951, z: 0.031939685}
  - {x: 0, y: -0.00497252, z: 0.06367937}
  - {x: 0, y: -0.011164756, z: 0.09541905}
  - {x: 0, y: -0.019827658, z: 0.12715873}
  - {x: 0, y: -0.030961227, z: 0.15889841}
  - {x: 0, y: -0.04456546, z: 0.1906381}
  - {x: 0, y: -0.060640365, z: 0.22237778}
  - {x: 0, y: -0.07918593, z: 0.25411746}
  - {x: 0, y: -0.10020217, z: 0.28585714}
  - {x: 0, y: -0.12368907, z: 0.31759682}
  - {x: 0, y: -0.14964664, z: 0.3493365}
  - {x: 0, y: -0.17807488, z: 0.3810762}
  - {x: 0, y: -0.20897378, z: 0.41281587}
  - {x: 0, y: -0.24234335, z: 0.44455555}
  - {x: 0, y: -0.27818358, z: 0.47629523}
  - {x: 0, y: -0.31649452, z: 0.50803494}
  - {x: 0, y: -0.35727605, z: 0.5397746}
  - {x: 0, y: -0.40052834, z: 0.5715143}
  - {x: 0, y: -0.4462512, z: 0.60325396}
  - {x: 0, y: -0.49444482, z: 0.6349937}
  - {x: 0, y: -0.54510903, z: 0.6667333}
  - {x: 0, y: -0.59824395, z: 0.69847304}
  - {x: 0, y: -0.6538495, z: 0.7302127}
  - {x: 0, y: -0.7119258, z: 0.7619524}
  - {x: 0, y: -0.7724726, z: 0.79369205}
  - {x: 0, y: -0.8354903, z: 0.82543176}
  - {x: 0, y: -0.90097845, z: 0.8571714}
  - {x: 0, y: -0.9689374, z: 0.8889111}
  - {x: 0, y: -1.039367, z: 0.9206508}
  - {x: 0, y: -1.1122673, z: 0.9523905}
  - {x: 0, y: -1.187638, z: 0.98413014}
  - {x: 0, y: -1.2654797, z: 1.0158699}
  - {x: 0, y: -1.345792, z: 1.0476096}
  - {x: 0, y: -1.428575, z: 1.0793493}
  - {x: 0, y: -1.5138284, z: 1.1110889}
  - {x: 0, y: -1.6015527, z: 1.1428286}
  - {x: 0, y: -1.6917477, z: 1.1745683}
  - {x: 0, y: -1.7844133, z: 1.206308}
  - {x: 0, y: -1.8795493, z: 1.2380476}
  - {x: 0, y: -1.9771563, z: 1.2697873}
  - {x: 0, y: -2.077234, z: 1.301527}
  - {x: 0, y: -2.1797824, z: 1.3332667}
  - {x: 0, y: -2.284801, z: 1.3650063}
  - {x: 0, y: -2.3922906, z: 1.396746}
  - {x: 0, y: -2.502251, z: 1.4284858}
  - {x: 0, y: -2.614682, z: 1.4602255}
  - {x: 0, y: -2.7295833, z: 1.491965}
  - {x: 0, y: -2.8469555, z: 1.5237048}
  - {x: 0, y: -2.9667985, z: 1.5554445}
  - {x: 0, y: -3.0891118, z: 1.5871841}
  - {x: 0, y: -3.2138963, z: 1.6189238}
  - {x: 0, y: -3.3411512, z: 1.6506635}
  - {x: 0, y: -3.470877, z: 1.6824032}
  - {x: 0, y: -3.603073, z: 1.7141428}
  - {x: 0, y: -3.7377398, z: 1.7458825}
  - {x: 0, y: -3.8748775, z: 1.7776222}
  - {x: 0, y: -4.014486, z: 1.8093619}
  - {x: 0, y: -4.156564, z: 1.8411015}
  - {x: 0, y: -4.301114, z: 1.8728412}
  - {x: 0, y: -4.4481344, z: 1.904581}
  - {x: 0, y: -4.5976257, z: 1.9363207}
  - {x: 0, y: -4.7495866, z: 1.9680603}
  - {x: 0, y: -4.904019, z: 1.9998}
  m_Parameters:
    serializedVersion: 3
    widthMultiplier: 0.01
    widthCurve:
      serializedVersion: 2
      m_Curve:
      - serializedVersion: 3
        time: 0
        value: 1
        inSlope: 0
        outSlope: 0
        tangentMode: 0
        weightedMode: 0
        inWeight: 0
        outWeight: 0
      - serializedVersion: 3
        time: 1
        value: 1
        inSlope: 0
        outSlope: 0
        tangentMode: 0
        weightedMode: 0
        inWeight: 0
        outWeight: 0
      m_PreInfinity: 2
      m_PostInfinity: 2
      m_RotationOrder: 4
    colorGradient:
      serializedVersion: 2
      key0: {r: 1, g: 1, b: 1, a: 1}
      key1: {r: 1, g: 1, b: 1, a: 1}
      key2: {r: 0, g: 0, b: 0, a: 0}
      key3: {r: 0, g: 0, b: 0, a: 0}
      key4: {r: 0, g: 0, b: 0, a: 0}
      key5: {r: 0, g: 0, b: 0, a: 0}
      key6: {r: 0, g: 0, b: 0, a: 0}
      key7: {r: 0, g: 0, b: 0, a: 0}
      ctime0: 0
      ctime1: 65535
      ctime2: 0
      ctime3: 0
      ctime4: 0
      ctime5: 0
      ctime6: 0
      ctime7: 0
      atime0: 0
      atime1: 65535
      atime2: 0
      atime3: 0
      atime4: 0
      atime5: 0
      atime6: 0
      atime7: 0
      m_Mode: 0
      m_NumColorKeys: 2
      m_NumAlphaKeys: 2
    numCornerVertices: 8
    numCapVertices: 8
    alignment: 0
    textureMode: 0
    shadowBias: 0
    generateLightingData: 0
  m_UseWorldSpace: 1
  m_Loop: 0
--- !u!114 &114102700686190618
MonoBehaviour:
  m_ObjectHideFlags: 0
  m_CorrespondingSourceObject: {fileID: 0}
  m_PrefabInstance: {fileID: 0}
  m_PrefabAsset: {fileID: 0}
  m_GameObject: {fileID: 1196247974088106}
  m_Enabled: 1
  m_EditorHideFlags: 0
  m_Script: {fileID: 11500000, guid: 1287d4d138a242f794bcfc01354d3ae2, type: 3}
  m_Name: 
  m_EditorClassIdentifier: 
  lineDataSource: {fileID: 114203474425088848}
  lineColor:
    serializedVersion: 2
    key0: {r: 1, g: 1, b: 1, a: 1}
    key1: {r: 1, g: 1, b: 1, a: 1}
    key2: {r: 0, g: 0, b: 0, a: 0}
    key3: {r: 0, g: 0, b: 0, a: 0}
    key4: {r: 0, g: 0, b: 0, a: 0}
    key5: {r: 0, g: 0, b: 0, a: 0}
    key6: {r: 0, g: 0, b: 0, a: 0}
    key7: {r: 0, g: 0, b: 0, a: 0}
    ctime0: 0
    ctime1: 65535
    ctime2: 0
    ctime3: 0
    ctime4: 0
    ctime5: 0
    ctime6: 0
    ctime7: 0
    atime0: 0
    atime1: 65535
    atime2: 0
    atime3: 0
    atime4: 0
    atime5: 0
    atime6: 0
    atime7: 0
    m_Mode: 0
    m_NumColorKeys: 2
    m_NumAlphaKeys: 2
  lineWidth:
    serializedVersion: 2
    m_Curve:
    - serializedVersion: 3
      time: 0
      value: 1
      inSlope: 0
      outSlope: 0
      tangentMode: 0
      weightedMode: 0
      inWeight: 0
      outWeight: 0
    - serializedVersion: 3
      time: 1
      value: 1
      inSlope: 0
      outSlope: 0
      tangentMode: 0
      weightedMode: 0
      inWeight: 0
      outWeight: 0
    m_PreInfinity: 2
    m_PostInfinity: 2
    m_RotationOrder: 4
  widthMultiplier: 0.01
  colorOffset: 0
  widthOffset: 0
  stepMode: 0
  lineStepCount: 64
  pointDistributionMode: 1
  customPointDistributionLength: 0.1
  customPointDistributionCurve:
    serializedVersion: 2
    m_Curve:
    - serializedVersion: 3
      time: 0
      value: 0
      inSlope: 0
      outSlope: 1
      tangentMode: 0
      weightedMode: 0
      inWeight: 0
      outWeight: 0
    - serializedVersion: 3
      time: 1
      value: 1
      inSlope: 1
      outSlope: 0
      tangentMode: 0
      weightedMode: 0
      inWeight: 0
      outWeight: 0
    m_PreInfinity: 2
    m_PostInfinity: 2
    m_RotationOrder: 4
  lineMaterial: {fileID: 2100000, guid: 11727442de02c1d4b8d37a063c748aec, type: 2}
  roundedEdges: 1
  roundedCaps: 1
  fadeLineBrightnessOnEnable: 1
  fadeLinePercentage: 0.55
  fadeLineAnimationTime: 0.65
  lineRenderer: {fileID: 120827243805602862}
  tileMaterialByWorldLength: 0
  tileMaterialScale: 1
--- !u!114 &114225980339285346
MonoBehaviour:
  m_ObjectHideFlags: 0
  m_CorrespondingSourceObject: {fileID: 0}
  m_PrefabInstance: {fileID: 0}
  m_PrefabAsset: {fileID: 0}
  m_GameObject: {fileID: 1196247974088106}
  m_Enabled: 1
  m_EditorHideFlags: 0
  m_Script: {fileID: 11500000, guid: 61e2b9c3b68642d6a51894a46aaece55, type: 3}
  m_Name: 
  m_EditorClassIdentifier: 
  distortOrder: 0
  distortStrength: 1
  localCenterOfGravity: {x: 0, y: 0, z: 0}
  axisStrength: {x: 1, y: 1, z: 1}
  radius: 0.5
  gravityStrength:
    serializedVersion: 2
    m_Curve:
    - serializedVersion: 3
      time: 0
      value: 0
      inSlope: 0
      outSlope: 0
      tangentMode: 0
      weightedMode: 0
      inWeight: 0
      outWeight: 0
    - serializedVersion: 3
      time: 1
      value: 1
      inSlope: 0
      outSlope: 0
      tangentMode: 0
      weightedMode: 0
      inWeight: 0
      outWeight: 0
    m_PreInfinity: 2
    m_PostInfinity: 2
    m_RotationOrder: 4
--- !u!114 &114917070612713698
MonoBehaviour:
  m_ObjectHideFlags: 0
  m_CorrespondingSourceObject: {fileID: 0}
  m_PrefabInstance: {fileID: 0}
  m_PrefabAsset: {fileID: 0}
  m_GameObject: {fileID: 1196247974088106}
  m_Enabled: 1
  m_EditorHideFlags: 0
  m_Script: {fileID: 11500000, guid: c70751eb9a4a4872b711b9d9ea27b3d8, type: 3}
  m_Name: 
  m_EditorClassIdentifier: 
  destroyOnSourceLost: 0
  useSourcePoseData: 0
  poseAction:
    id: 4
    description: Pointer Pose
    axisConstraint: 7
  handedness: 1
  cursorPrefab: {fileID: 1554777696564956, guid: ae2b3fffb00f464287cda86f49109b47,
    type: 3}
  disableCursorOnStart: 1
  setCursorVisibilityOnSourceDetected: 0
  raycastOrigin: {fileID: 0}
  activeHoldAction:
    id: 0
    description: None
    axisConstraint: 0
  pointerAction:
    id: 6
    description: Trigger
    axisConstraint: 3
  grabAction:
    id: 0
    description: None
    axisConstraint: 0
  requiresHoldAction: 0
  requiresActionBeforeEnabling: 1
  overrideGlobalPointerExtent: 0
  pointerExtent: 20
  defaultPointerExtent: 20
  sphereCastRadius: 0.1
  LineColorSelected:
    serializedVersion: 2
    key0: {r: 0.45882353, g: 0.7529412, b: 0.98039216, a: 0}
    key1: {r: 1, g: 1, b: 1, a: 1}
    key2: {r: 0, g: 0, b: 0, a: 1}
    key3: {r: 0, g: 0, b: 0, a: 0}
    key4: {r: 0, g: 0, b: 0, a: 0}
    key5: {r: 0, g: 0, b: 0, a: 0}
    key6: {r: 0, g: 0, b: 0, a: 0}
    key7: {r: 0, g: 0, b: 0, a: 0}
    ctime0: 0
    ctime1: 65535
    ctime2: 0
    ctime3: 0
    ctime4: 0
    ctime5: 0
    ctime6: 0
    ctime7: 0
    atime0: 0
    atime1: 1311
    atime2: 64224
    atime3: 65535
    atime4: 0
    atime5: 0
    atime6: 0
    atime7: 0
    m_Mode: 0
    m_NumColorKeys: 2
    m_NumAlphaKeys: 4
  LineColorValid:
    serializedVersion: 2
    key0: {r: 0.45882353, g: 0.7529412, b: 0.98039216, a: 0}
    key1: {r: 1, g: 1, b: 1, a: 1}
    key2: {r: 0, g: 0, b: 0, a: 1}
    key3: {r: 0, g: 0, b: 0, a: 0}
    key4: {r: 0, g: 0, b: 0, a: 0}
    key5: {r: 0, g: 0, b: 0, a: 0}
    key6: {r: 0, g: 0, b: 0, a: 0}
    key7: {r: 0, g: 0, b: 0, a: 0}
    ctime0: 0
    ctime1: 65535
    ctime2: 0
    ctime3: 0
    ctime4: 0
    ctime5: 0
    ctime6: 0
    ctime7: 0
    atime0: 0
    atime1: 1311
    atime2: 64224
    atime3: 65535
    atime4: 0
    atime5: 0
    atime6: 0
    atime7: 0
    m_Mode: 0
    m_NumColorKeys: 2
    m_NumAlphaKeys: 4
  LineColorInvalid:
    serializedVersion: 2
    key0: {r: 1, g: 0, b: 0, a: 0}
    key1: {r: 1, g: 1, b: 1, a: 1}
    key2: {r: 0, g: 0, b: 0, a: 0}
    key3: {r: 0, g: 0, b: 0, a: 0}
    key4: {r: 0, g: 0, b: 0, a: 0}
    key5: {r: 0, g: 0, b: 0, a: 0}
    key6: {r: 0, g: 0, b: 0, a: 0}
    key7: {r: 0, g: 0, b: 0, a: 0}
    ctime0: 0
    ctime1: 65535
    ctime2: 0
    ctime3: 0
    ctime4: 0
    ctime5: 0
    ctime6: 0
    ctime7: 0
    atime0: 0
    atime1: 1311
    atime2: 65535
    atime3: 0
    atime4: 0
    atime5: 0
    atime6: 0
    atime7: 0
    m_Mode: 0
    m_NumColorKeys: 2
    m_NumAlphaKeys: 3
  LineColorNoTarget:
    serializedVersion: 2
    key0: {r: 1, g: 0, b: 0, a: 0}
    key1: {r: 1, g: 1, b: 1, a: 1}
    key2: {r: 0, g: 0, b: 0, a: 0}
    key3: {r: 0, g: 0, b: 0, a: 0}
    key4: {r: 0, g: 0, b: 0, a: 0}
    key5: {r: 0, g: 0, b: 0, a: 0}
    key6: {r: 0, g: 0, b: 0, a: 0}
    key7: {r: 0, g: 0, b: 0, a: 0}
    ctime0: 0
    ctime1: 65535
    ctime2: 0
    ctime3: 0
    ctime4: 0
    ctime5: 0
    ctime6: 0
    ctime7: 0
    atime0: 0
    atime1: 1311
    atime2: 65535
    atime3: 0
    atime4: 0
    atime5: 0
    atime6: 0
    atime7: 0
    m_Mode: 0
    m_NumColorKeys: 2
    m_NumAlphaKeys: 3
  LineColorLockFocus:
    serializedVersion: 2
    key0: {r: 0.45882353, g: 0.7529412, b: 0.98039216, a: 0}
    key1: {r: 1, g: 1, b: 1, a: 1}
    key2: {r: 0, g: 0, b: 0, a: 1}
    key3: {r: 0, g: 0, b: 0, a: 0}
    key4: {r: 0, g: 0, b: 0, a: 0}
    key5: {r: 0, g: 0, b: 0, a: 0}
    key6: {r: 0, g: 0, b: 0, a: 0}
    key7: {r: 0, g: 0, b: 0, a: 0}
    ctime0: 0
    ctime1: 65535
    ctime2: 0
    ctime3: 0
    ctime4: 0
    ctime5: 0
    ctime6: 0
    ctime7: 0
    atime0: 0
    atime1: 1311
    atime2: 64224
    atime3: 65535
    atime4: 0
    atime5: 0
    atime6: 0
    atime7: 0
    m_Mode: 0
    m_NumColorKeys: 2
    m_NumAlphaKeys: 4
  lineBase: {fileID: 114203474425088848}
  lineRenderers:
  - {fileID: 114102700686190618}
  LineCastResolution: 15
  teleportAction:
    id: 5
    description: Teleport
    axisConstraint: 4
  hotSpotCursorVisibility: 1
  inputThreshold: 0.5
  angleOffset: 0
  teleportActivationAngle: 45
  rotateActivationAngle: 22.5
  rotationAmount: 90
  backStrafeActivationAngle: 45
  strafeAmount: 0.25
  checkForFloorOnStrafe: 0
  adjustHeightOnStrafe: 0
  maxHeightChangeOnStrafe: 0.5
  upDirectionThreshold: 0.2
  LineColorHotSpot:
    serializedVersion: 2
    key0: {r: 0, g: 0, b: 1, a: 0}
    key1: {r: 1, g: 0.5, b: 0, a: 1}
    key2: {r: 0, g: 0, b: 0, a: 1}
    key3: {r: 0, g: 0, b: 0, a: 0}
    key4: {r: 0, g: 0, b: 0, a: 0}
    key5: {r: 0, g: 0, b: 0, a: 0}
    key6: {r: 0, g: 0, b: 0, a: 0}
    key7: {r: 0, g: 0, b: 0, a: 0}
    ctime0: 0
    ctime1: 65535
    ctime2: 0
    ctime3: 0
    ctime4: 0
    ctime5: 0
    ctime6: 0
    ctime7: 0
    atime0: 0
    atime1: 1311
    atime2: 64224
    atime3: 65535
    atime4: 0
    atime5: 0
    atime6: 0
    atime7: 0
    m_Mode: 0
    m_NumColorKeys: 2
    m_NumAlphaKeys: 4
  ValidLayers:
    serializedVersion: 2
    m_Bits: 1
  InvalidLayers:
    serializedVersion: 2
    m_Bits: 4
  gravityDistorter: {fileID: 114225980339285346}
  pointerAudioSource: {fileID: 5571717125842689191}
  teleportRequestedClip: {fileID: 8300000, guid: a16c53885bdbc54469088880ea44a9fd,
    type: 3}
  teleportCompletedClip: {fileID: 8300000, guid: 06f9d598e90313646bbff63530142344,
    type: 3}
  pointerOrientation: 0
  minParabolaVelocity: 5
  maxParabolaVelocity: 20
  minDistanceModifier: 1
  maxDistanceModifier: 20
  parabolicLineData: {fileID: 114203474425088848}
--- !u!82 &5571717125842689191
AudioSource:
  m_ObjectHideFlags: 0
  m_CorrespondingSourceObject: {fileID: 0}
  m_PrefabInstance: {fileID: 0}
  m_PrefabAsset: {fileID: 0}
  m_GameObject: {fileID: 1196247974088106}
  m_Enabled: 1
  serializedVersion: 4
  OutputAudioMixerGroup: {fileID: 0}
  m_audioClip: {fileID: 0}
  m_PlayOnAwake: 0
  m_Volume: 0.75
  m_Pitch: 1
  Loop: 0
  Mute: 0
  Spatialize: 1
  SpatializePostEffects: 0
  Priority: 128
  DopplerLevel: 1
  MinDistance: 1
  MaxDistance: 500
  Pan2D: 0
  rolloffMode: 0
  BypassEffects: 0
  BypassListenerEffects: 0
  BypassReverbZones: 0
  rolloffCustomCurve:
    serializedVersion: 2
    m_Curve:
    - serializedVersion: 3
      time: 0
      value: 1
      inSlope: 0
      outSlope: 0
      tangentMode: 0
      weightedMode: 0
      inWeight: 0.33333334
      outWeight: 0.33333334
    - serializedVersion: 3
      time: 1
      value: 0
      inSlope: 0
      outSlope: 0
      tangentMode: 0
      weightedMode: 0
      inWeight: 0.33333334
      outWeight: 0.33333334
    m_PreInfinity: 2
    m_PostInfinity: 2
    m_RotationOrder: 4
  panLevelCustomCurve:
    serializedVersion: 2
    m_Curve:
    - serializedVersion: 3
      time: 0
      value: 1
      inSlope: 0
      outSlope: 0
      tangentMode: 0
      weightedMode: 0
      inWeight: 0.33333334
      outWeight: 0.33333334
    m_PreInfinity: 2
    m_PostInfinity: 2
    m_RotationOrder: 4
  spreadCustomCurve:
    serializedVersion: 2
    m_Curve:
    - serializedVersion: 3
      time: 0
      value: 0
      inSlope: 0
      outSlope: 0
      tangentMode: 0
      weightedMode: 0
      inWeight: 0.33333334
      outWeight: 0.33333334
    m_PreInfinity: 2
    m_PostInfinity: 2
    m_RotationOrder: 4
  reverbZoneMixCustomCurve:
    serializedVersion: 2
    m_Curve:
    - serializedVersion: 3
      time: 0
      value: 1
      inSlope: 0
      outSlope: 0
      tangentMode: 0
      weightedMode: 0
      inWeight: 0.33333334
      outWeight: 0.33333334
    m_PreInfinity: 2
    m_PostInfinity: 2
    m_RotationOrder: 4
--- !u!1 &1402685148736964
GameObject:
  m_ObjectHideFlags: 0
  m_CorrespondingSourceObject: {fileID: 0}
  m_PrefabInstance: {fileID: 0}
  m_PrefabAsset: {fileID: 0}
  serializedVersion: 6
  m_Component:
  - component: {fileID: 4736427770665110}
  m_Layer: 0
  m_Name: ParabolicLineTransform
  m_TagString: Untagged
  m_Icon: {fileID: 0}
  m_NavMeshLayer: 0
  m_StaticEditorFlags: 0
  m_IsActive: 1
--- !u!4 &4736427770665110
Transform:
  m_ObjectHideFlags: 0
  m_CorrespondingSourceObject: {fileID: 0}
  m_PrefabInstance: {fileID: 0}
  m_PrefabAsset: {fileID: 0}
  m_GameObject: {fileID: 1402685148736964}
  m_LocalRotation: {x: 0, y: 0, z: 0, w: 1}
  m_LocalPosition: {x: 0, y: 0, z: 0}
  m_LocalScale: {x: 1, y: 1, z: 1}
  m_Children: []
  m_Father: {fileID: 4133029787660532}
  m_RootOrder: 0
  m_LocalEulerAnglesHint: {x: 0, y: 0, z: 0}
