%YAML 1.1
%TAG !u! tag:unity3d.com,2011:
--- !u!1001 &5799294774603053913
PrefabInstance:
  m_ObjectHideFlags: 0
  serializedVersion: 2
  m_Modification:
    m_TransformParent: {fileID: 0}
    m_Modifications:
    - target: {fileID: 482541237737822506, guid: 478732197b53dee4694480aac1a7c98c,
        type: 3}
      propertyPath: m_textInfo.lineCount
      value: 1
      objectReference: {fileID: 0}
    - target: {fileID: 482541237737822506, guid: 478732197b53dee4694480aac1a7c98c,
        type: 3}
      propertyPath: m_textInfo.pageCount
      value: 1
      objectReference: {fileID: 0}
    - target: {fileID: 482541237737822506, guid: 478732197b53dee4694480aac1a7c98c,
        type: 3}
      propertyPath: m_textInfo.wordCount
      value: 3
      objectReference: {fileID: 0}
    - target: {fileID: 482541237737822506, guid: 478732197b53dee4694480aac1a7c98c,
        type: 3}
      propertyPath: m_textInfo.spaceCount
      value: 2
      objectReference: {fileID: 0}
    - target: {fileID: 482541237737822506, guid: 478732197b53dee4694480aac1a7c98c,
        type: 3}
      propertyPath: m_textInfo.characterCount
      value: 18
      objectReference: {fileID: 0}
    - target: {fileID: 482541237737822548, guid: 478732197b53dee4694480aac1a7c98c,
        type: 3}
      propertyPath: m_Mesh
      value: 
      objectReference: {fileID: 0}
    - target: {fileID: 1281587130050934810, guid: 478732197b53dee4694480aac1a7c98c,
        type: 3}
      propertyPath: targetViewPercentV
      value: 0.24
      objectReference: {fileID: 0}
    - target: {fileID: 1324094653149575863, guid: 478732197b53dee4694480aac1a7c98c,
        type: 3}
      propertyPath: m_Mesh
      value: 
      objectReference: {fileID: 0}
    - target: {fileID: 1636924909616545563, guid: 478732197b53dee4694480aac1a7c98c,
        type: 3}
      propertyPath: m_Mesh
      value: 
      objectReference: {fileID: 0}
    - target: {fileID: 1875475717908461894, guid: 478732197b53dee4694480aac1a7c98c,
        type: 3}
      propertyPath: m_Materials.Array.data[0]
      value: 
      objectReference: {fileID: 21202819797275496, guid: 6a84f857bec7e7345843ae29404c57ce,
        type: 2}
    - target: {fileID: 2870233259143716707, guid: 478732197b53dee4694480aac1a7c98c,
        type: 3}
      propertyPath: m_Mesh
      value: 
      objectReference: {fileID: 0}
    - target: {fileID: 3677022320170089600, guid: 478732197b53dee4694480aac1a7c98c,
        type: 3}
      propertyPath: m_Mesh
      value: 
      objectReference: {fileID: 0}
    - target: {fileID: 3677022320170089726, guid: 478732197b53dee4694480aac1a7c98c,
        type: 3}
      propertyPath: m_textInfo.lineCount
      value: 1
      objectReference: {fileID: 0}
    - target: {fileID: 3677022320170089726, guid: 478732197b53dee4694480aac1a7c98c,
        type: 3}
      propertyPath: m_textInfo.pageCount
      value: 1
      objectReference: {fileID: 0}
    - target: {fileID: 3677022320170089726, guid: 478732197b53dee4694480aac1a7c98c,
        type: 3}
      propertyPath: m_textInfo.wordCount
      value: 2
      objectReference: {fileID: 0}
    - target: {fileID: 3677022320170089726, guid: 478732197b53dee4694480aac1a7c98c,
        type: 3}
      propertyPath: m_textInfo.spaceCount
      value: 1
      objectReference: {fileID: 0}
    - target: {fileID: 3677022320170089726, guid: 478732197b53dee4694480aac1a7c98c,
        type: 3}
      propertyPath: m_textInfo.characterCount
      value: 10
      objectReference: {fileID: 0}
    - target: {fileID: 3741233179106323151, guid: 478732197b53dee4694480aac1a7c98c,
        type: 3}
      propertyPath: m_textInfo.lineCount
      value: 1
      objectReference: {fileID: 0}
    - target: {fileID: 3741233179106323151, guid: 478732197b53dee4694480aac1a7c98c,
        type: 3}
      propertyPath: m_textInfo.pageCount
      value: 1
      objectReference: {fileID: 0}
    - target: {fileID: 3741233179106323151, guid: 478732197b53dee4694480aac1a7c98c,
        type: 3}
      propertyPath: m_textInfo.wordCount
      value: 2
      objectReference: {fileID: 0}
    - target: {fileID: 3741233179106323151, guid: 478732197b53dee4694480aac1a7c98c,
        type: 3}
      propertyPath: m_textInfo.spaceCount
      value: 1
      objectReference: {fileID: 0}
    - target: {fileID: 3741233179106323151, guid: 478732197b53dee4694480aac1a7c98c,
        type: 3}
      propertyPath: m_textInfo.characterCount
      value: 12
      objectReference: {fileID: 0}
    - target: {fileID: 3968914217840867596, guid: 478732197b53dee4694480aac1a7c98c,
        type: 3}
      propertyPath: m_LocalScale.y
      value: 0.096
      objectReference: {fileID: 0}
    - target: {fileID: 3968914217840867596, guid: 478732197b53dee4694480aac1a7c98c,
        type: 3}
      propertyPath: m_LocalPosition.y
      value: -0.0084
      objectReference: {fileID: 0}
    - target: {fileID: 3982157333055104288, guid: 478732197b53dee4694480aac1a7c98c,
        type: 3}
      propertyPath: m_AnchoredPosition.y
      value: 0.027
      objectReference: {fileID: 0}
    - target: {fileID: 4026208216943969014, guid: 478732197b53dee4694480aac1a7c98c,
        type: 3}
      propertyPath: m_AnchoredPosition.y
      value: 0.01
      objectReference: {fileID: 0}
    - target: {fileID: 5071660326773158394, guid: 478732197b53dee4694480aac1a7c98c,
        type: 3}
      propertyPath: m_Mesh
      value: 
      objectReference: {fileID: 0}
    - target: {fileID: 5506555777999257172, guid: 478732197b53dee4694480aac1a7c98c,
        type: 3}
      propertyPath: m_textInfo.lineCount
      value: 1
      objectReference: {fileID: 0}
    - target: {fileID: 5506555777999257172, guid: 478732197b53dee4694480aac1a7c98c,
        type: 3}
      propertyPath: m_textInfo.pageCount
      value: 1
      objectReference: {fileID: 0}
    - target: {fileID: 5506555777999257172, guid: 478732197b53dee4694480aac1a7c98c,
        type: 3}
      propertyPath: m_textInfo.wordCount
      value: 2
      objectReference: {fileID: 0}
    - target: {fileID: 5506555777999257172, guid: 478732197b53dee4694480aac1a7c98c,
        type: 3}
      propertyPath: m_textInfo.spaceCount
      value: 1
      objectReference: {fileID: 0}
    - target: {fileID: 5506555777999257172, guid: 478732197b53dee4694480aac1a7c98c,
        type: 3}
      propertyPath: m_textInfo.characterCount
      value: 12
      objectReference: {fileID: 0}
    - target: {fileID: 5514614719784626203, guid: 478732197b53dee4694480aac1a7c98c,
        type: 3}
      propertyPath: m_Mesh
      value: 
      objectReference: {fileID: 0}
    - target: {fileID: 5514614719784626277, guid: 478732197b53dee4694480aac1a7c98c,
        type: 3}
      propertyPath: m_textInfo.lineCount
      value: 1
      objectReference: {fileID: 0}
    - target: {fileID: 5514614719784626277, guid: 478732197b53dee4694480aac1a7c98c,
        type: 3}
      propertyPath: m_textInfo.pageCount
      value: 1
      objectReference: {fileID: 0}
    - target: {fileID: 5514614719784626277, guid: 478732197b53dee4694480aac1a7c98c,
        type: 3}
      propertyPath: m_textInfo.wordCount
      value: 2
      objectReference: {fileID: 0}
    - target: {fileID: 5514614719784626277, guid: 478732197b53dee4694480aac1a7c98c,
        type: 3}
      propertyPath: m_textInfo.spaceCount
      value: 1
      objectReference: {fileID: 0}
    - target: {fileID: 5514614719784626277, guid: 478732197b53dee4694480aac1a7c98c,
        type: 3}
      propertyPath: m_textInfo.characterCount
      value: 10
      objectReference: {fileID: 0}
    - target: {fileID: 5829137521172998042, guid: 478732197b53dee4694480aac1a7c98c,
        type: 3}
      propertyPath: m_Mesh
      value: 
      objectReference: {fileID: 0}
    - target: {fileID: 5888146618124307900, guid: 478732197b53dee4694480aac1a7c98c,
        type: 3}
      propertyPath: m_textInfo.lineCount
      value: 2
      objectReference: {fileID: 0}
    - target: {fileID: 5888146618124307900, guid: 478732197b53dee4694480aac1a7c98c,
        type: 3}
      propertyPath: m_textInfo.pageCount
      value: 1
      objectReference: {fileID: 0}
    - target: {fileID: 5888146618124307900, guid: 478732197b53dee4694480aac1a7c98c,
        type: 3}
      propertyPath: m_textInfo.wordCount
      value: 7
      objectReference: {fileID: 0}
    - target: {fileID: 5888146618124307900, guid: 478732197b53dee4694480aac1a7c98c,
        type: 3}
      propertyPath: m_textInfo.spaceCount
      value: 6
      objectReference: {fileID: 0}
    - target: {fileID: 5888146618124307900, guid: 478732197b53dee4694480aac1a7c98c,
        type: 3}
      propertyPath: m_textInfo.characterCount
      value: 40
      objectReference: {fileID: 0}
    - target: {fileID: 5931198887527984356, guid: 478732197b53dee4694480aac1a7c98c,
        type: 3}
      propertyPath: m_margin.z
      value: -0.117718
      objectReference: {fileID: 0}
    - target: {fileID: 5931198887527984356, guid: 478732197b53dee4694480aac1a7c98c,
        type: 3}
      propertyPath: m_textInfo.lineCount
      value: 4
      objectReference: {fileID: 0}
    - target: {fileID: 5931198887527984356, guid: 478732197b53dee4694480aac1a7c98c,
        type: 3}
      propertyPath: m_textInfo.pageCount
      value: 1
      objectReference: {fileID: 0}
    - target: {fileID: 5931198887527984356, guid: 478732197b53dee4694480aac1a7c98c,
        type: 3}
      propertyPath: m_textInfo.wordCount
      value: 31
      objectReference: {fileID: 0}
    - target: {fileID: 5931198887527984356, guid: 478732197b53dee4694480aac1a7c98c,
        type: 3}
      propertyPath: m_textInfo.spaceCount
      value: 30
      objectReference: {fileID: 0}
    - target: {fileID: 5931198887527984356, guid: 478732197b53dee4694480aac1a7c98c,
        type: 3}
      propertyPath: m_textInfo.characterCount
      value: 180
      objectReference: {fileID: 0}
    - target: {fileID: 5931198887527984356, guid: 478732197b53dee4694480aac1a7c98c,
        type: 3}
      propertyPath: m_firstOverflowCharacterIndex
      value: -1
      objectReference: {fileID: 0}
    - target: {fileID: 6149322787555490021, guid: 478732197b53dee4694480aac1a7c98c,
        type: 3}
      propertyPath: m_LocalPosition.y
      value: -0.0403
      objectReference: {fileID: 0}
    - target: {fileID: 6722064896235382973, guid: 478732197b53dee4694480aac1a7c98c,
        type: 3}
      propertyPath: m_textAlignment
      value: 513
      objectReference: {fileID: 0}
    - target: {fileID: 6722064896235382973, guid: 478732197b53dee4694480aac1a7c98c,
        type: 3}
      propertyPath: m_textInfo.lineCount
      value: 1
      objectReference: {fileID: 0}
    - target: {fileID: 6722064896235382973, guid: 478732197b53dee4694480aac1a7c98c,
        type: 3}
      propertyPath: m_textInfo.pageCount
      value: 1
      objectReference: {fileID: 0}
    - target: {fileID: 6722064896235382973, guid: 478732197b53dee4694480aac1a7c98c,
        type: 3}
      propertyPath: m_textInfo.wordCount
      value: 3
      objectReference: {fileID: 0}
    - target: {fileID: 6722064896235382973, guid: 478732197b53dee4694480aac1a7c98c,
        type: 3}
      propertyPath: m_textInfo.spaceCount
      value: 2
      objectReference: {fileID: 0}
    - target: {fileID: 6722064896235382973, guid: 478732197b53dee4694480aac1a7c98c,
        type: 3}
      propertyPath: m_textInfo.characterCount
      value: 18
      objectReference: {fileID: 0}
    - target: {fileID: 7917488250107063852, guid: 478732197b53dee4694480aac1a7c98c,
        type: 3}
      propertyPath: m_Mesh
      value: 
      objectReference: {fileID: 0}
    - target: {fileID: 8451469530216736245, guid: 478732197b53dee4694480aac1a7c98c,
        type: 3}
      propertyPath: m_RootOrder
      value: 0
      objectReference: {fileID: 0}
    - target: {fileID: 8451469530216736245, guid: 478732197b53dee4694480aac1a7c98c,
        type: 3}
      propertyPath: m_LocalPosition.x
      value: 0
      objectReference: {fileID: 0}
    - target: {fileID: 8451469530216736245, guid: 478732197b53dee4694480aac1a7c98c,
        type: 3}
      propertyPath: m_LocalPosition.y
      value: 0
      objectReference: {fileID: 0}
    - target: {fileID: 8451469530216736245, guid: 478732197b53dee4694480aac1a7c98c,
        type: 3}
      propertyPath: m_LocalPosition.z
      value: 0.6
      objectReference: {fileID: 0}
    - target: {fileID: 8451469530216736245, guid: 478732197b53dee4694480aac1a7c98c,
        type: 3}
      propertyPath: m_LocalRotation.w
      value: 1
      objectReference: {fileID: 0}
    - target: {fileID: 8451469530216736245, guid: 478732197b53dee4694480aac1a7c98c,
        type: 3}
      propertyPath: m_LocalRotation.x
      value: 0
      objectReference: {fileID: 0}
    - target: {fileID: 8451469530216736245, guid: 478732197b53dee4694480aac1a7c98c,
        type: 3}
      propertyPath: m_LocalRotation.y
      value: 0
      objectReference: {fileID: 0}
    - target: {fileID: 8451469530216736245, guid: 478732197b53dee4694480aac1a7c98c,
        type: 3}
      propertyPath: m_LocalRotation.z
      value: 0
      objectReference: {fileID: 0}
    - target: {fileID: 8451469530216736245, guid: 478732197b53dee4694480aac1a7c98c,
        type: 3}
      propertyPath: m_LocalEulerAnglesHint.x
      value: 0
      objectReference: {fileID: 0}
    - target: {fileID: 8451469530216736245, guid: 478732197b53dee4694480aac1a7c98c,
        type: 3}
      propertyPath: m_LocalEulerAnglesHint.y
      value: 0
      objectReference: {fileID: 0}
    - target: {fileID: 8451469530216736245, guid: 478732197b53dee4694480aac1a7c98c,
        type: 3}
      propertyPath: m_LocalEulerAnglesHint.z
      value: 0
      objectReference: {fileID: 0}
    - target: {fileID: 8451469530216736246, guid: 478732197b53dee4694480aac1a7c98c,
        type: 3}
      propertyPath: m_Name
      value: DialogSmall_192x96
      objectReference: {fileID: 0}
    - target: {fileID: 8781469162883619712, guid: 478732197b53dee4694480aac1a7c98c,
        type: 3}
      propertyPath: m_textInfo.lineCount
      value: 1
      objectReference: {fileID: 0}
    - target: {fileID: 8781469162883619712, guid: 478732197b53dee4694480aac1a7c98c,
        type: 3}
      propertyPath: m_textInfo.pageCount
      value: 1
      objectReference: {fileID: 0}
    - target: {fileID: 8781469162883619712, guid: 478732197b53dee4694480aac1a7c98c,
        type: 3}
      propertyPath: m_textInfo.wordCount
      value: 2
      objectReference: {fileID: 0}
    - target: {fileID: 8781469162883619712, guid: 478732197b53dee4694480aac1a7c98c,
        type: 3}
      propertyPath: m_textInfo.spaceCount
      value: 1
      objectReference: {fileID: 0}
    - target: {fileID: 8781469162883619712, guid: 478732197b53dee4694480aac1a7c98c,
        type: 3}
      propertyPath: m_textInfo.characterCount
      value: 12
      objectReference: {fileID: 0}
    - target: {fileID: 8887909504623759093, guid: 478732197b53dee4694480aac1a7c98c,
        type: 3}
      propertyPath: m_IsActive
      value: 0
      objectReference: {fileID: 0}
    m_RemovedComponents: []
  m_SourcePrefab: {fileID: 100100000, guid: 478732197b53dee4694480aac1a7c98c, type: 3}
