%YAML 1.1
%TAG !u! tag:unity3d.com,2011:
--- !u!64 &4745277803133798441
MeshCollider:
  m_ObjectHideFlags: 0
  m_CorrespondingSourceObject: {fileID: 0}
  m_PrefabInstance: {fileID: 0}
  m_PrefabAsset: {fileID: 0}
  m_GameObject: {fileID: 4745277803133898613}
  m_Material: {fileID: 0}
  m_IsTrigger: 0
  m_Enabled: 1
  serializedVersion: 4
  m_Convex: 0
  m_CookingOptions: 30
  m_Mesh: {fileID: 4300002, guid: 1104611d051d4e42a68391888b61b32e, type: 3}
--- !u!95 &4745277803133798440
Animator:
  serializedVersion: 3
  m_ObjectHideFlags: 0
  m_CorrespondingSourceObject: {fileID: 0}
  m_PrefabInstance: {fileID: 0}
  m_PrefabAsset: {fileID: 0}
  m_GameObject: {fileID: 4745277803133898613}
  m_Enabled: 1
  m_Avatar: {fileID: 0}
  m_Controller: {fileID: 9100000, guid: 441b618038bc09349835c0e2fa41ab9d, type: 2}
  m_CullingMode: 0
  m_UpdateMode: 0
  m_ApplyRootMotion: 0
  m_LinearVelocityBlending: 0
  m_WarningMessage: 
  m_HasTransformHierarchy: 1
  m_AllowConstantClipSamplingOptimization: 1
  m_KeepAnimatorControllerStateOnDisable: 0
--- !u!1 &4745277803483310119
GameObject:
  m_ObjectHideFlags: 0
  m_CorrespondingSourceObject: {fileID: 0}
  m_PrefabInstance: {fileID: 0}
  m_PrefabAsset: {fileID: 0}
  serializedVersion: 6
  m_Component:
  - component: {fileID: 4745277803483310136}
  m_Layer: 0
  m_Name: CutoutTransition
  m_TagString: Untagged
  m_Icon: {fileID: 0}
  m_NavMeshLayer: 0
  m_StaticEditorFlags: 0
  m_IsActive: 1
--- !u!4 &4745277803483310136
Transform:
  m_ObjectHideFlags: 0
  m_CorrespondingSourceObject: {fileID: 0}
  m_PrefabInstance: {fileID: 0}
  m_PrefabAsset: {fileID: 0}
  m_GameObject: {fileID: 4745277803483310119}
  m_LocalRotation: {x: -0, y: -0, z: -0, w: 1}
  m_LocalPosition: {x: 0.62675, y: -0.875, z: -0.6264}
  m_LocalScale: {x: 0.21048993, y: 0.21048993, z: 0.21048993}
  m_Children:
  - {fileID: 4745277803133408085}
  m_Father: {fileID: 0}
  m_RootOrder: 0
  m_LocalEulerAnglesHint: {x: 0, y: 0, z: 0}
--- !u!1001 &4745277803133798869
PrefabInstance:
  m_ObjectHideFlags: 0
  serializedVersion: 2
  m_Modification:
    m_TransformParent: {fileID: 4745277803483310136}
    m_Modifications:
    - target: {fileID: 100000, guid: 1104611d051d4e42a68391888b61b32e, type: 3}
      propertyPath: m_Name
      value: ShaderBall
      objectReference: {fileID: 0}
    - target: {fileID: 100000, guid: 1104611d051d4e42a68391888b61b32e, type: 3}
      propertyPath: m_StaticEditorFlags
      value: 0
      objectReference: {fileID: 0}
    - target: {fileID: 400000, guid: 1104611d051d4e42a68391888b61b32e, type: 3}
      propertyPath: m_RootOrder
      value: 0
      objectReference: {fileID: 0}
    - target: {fileID: 400000, guid: 1104611d051d4e42a68391888b61b32e, type: 3}
      propertyPath: m_LocalScale.x
      value: 1
      objectReference: {fileID: 0}
    - target: {fileID: 400000, guid: 1104611d051d4e42a68391888b61b32e, type: 3}
      propertyPath: m_LocalScale.y
      value: 1
      objectReference: {fileID: 0}
    - target: {fileID: 400000, guid: 1104611d051d4e42a68391888b61b32e, type: 3}
      propertyPath: m_LocalScale.z
      value: 1
      objectReference: {fileID: 0}
    - target: {fileID: 400000, guid: 1104611d051d4e42a68391888b61b32e, type: 3}
      propertyPath: m_LocalPosition.x
      value: 0
      objectReference: {fileID: 0}
    - target: {fileID: 400000, guid: 1104611d051d4e42a68391888b61b32e, type: 3}
      propertyPath: m_LocalPosition.y
      value: 0
      objectReference: {fileID: 0}
    - target: {fileID: 400000, guid: 1104611d051d4e42a68391888b61b32e, type: 3}
      propertyPath: m_LocalPosition.z
      value: 0
      objectReference: {fileID: 0}
    - target: {fileID: 400000, guid: 1104611d051d4e42a68391888b61b32e, type: 3}
      propertyPath: m_LocalRotation.w
      value: 0
      objectReference: {fileID: 0}
    - target: {fileID: 400000, guid: 1104611d051d4e42a68391888b61b32e, type: 3}
      propertyPath: m_LocalRotation.x
      value: -0
      objectReference: {fileID: 0}
    - target: {fileID: 400000, guid: 1104611d051d4e42a68391888b61b32e, type: 3}
      propertyPath: m_LocalRotation.y
      value: 0.7071068
      objectReference: {fileID: 0}
    - target: {fileID: 400000, guid: 1104611d051d4e42a68391888b61b32e, type: 3}
      propertyPath: m_LocalRotation.z
      value: 0.7071068
      objectReference: {fileID: 0}
    - target: {fileID: 400000, guid: 1104611d051d4e42a68391888b61b32e, type: 3}
      propertyPath: m_LocalEulerAnglesHint.x
      value: -90.00001
      objectReference: {fileID: 0}
    - target: {fileID: 400000, guid: 1104611d051d4e42a68391888b61b32e, type: 3}
      propertyPath: m_LocalEulerAnglesHint.y
      value: 180
      objectReference: {fileID: 0}
    - target: {fileID: 2300000, guid: 1104611d051d4e42a68391888b61b32e, type: 3}
      propertyPath: m_CastShadows
      value: 0
      objectReference: {fileID: 0}
    - target: {fileID: 2300000, guid: 1104611d051d4e42a68391888b61b32e, type: 3}
      propertyPath: m_MotionVectors
      value: 2
      objectReference: {fileID: 0}
    - target: {fileID: 2300000, guid: 1104611d051d4e42a68391888b61b32e, type: 3}
      propertyPath: m_ReceiveShadows
      value: 0
      objectReference: {fileID: 0}
    - target: {fileID: 2300000, guid: 1104611d051d4e42a68391888b61b32e, type: 3}
      propertyPath: m_LightProbeUsage
      value: 0
      objectReference: {fileID: 0}
    - target: {fileID: 2300000, guid: 1104611d051d4e42a68391888b61b32e, type: 3}
      propertyPath: m_ReflectionProbeUsage
      value: 0
      objectReference: {fileID: 0}
    - target: {fileID: 2300000, guid: 1104611d051d4e42a68391888b61b32e, type: 3}
      propertyPath: m_Materials.Array.data[0]
      value: 
      objectReference: {fileID: 2100000, guid: 08fe050c15d654b4abfb98d08af0fc40, type: 2}
    m_RemovedComponents: []
  m_SourcePrefab: {fileID: 100100000, guid: 1104611d051d4e42a68391888b61b32e, type: 3}
--- !u!1 &4745277803133898613 stripped
GameObject:
  m_CorrespondingSourceObject: {fileID: 100000, guid: 1104611d051d4e42a68391888b61b32e,
    type: 3}
  m_PrefabInstance: {fileID: 4745277803133798869}
  m_PrefabAsset: {fileID: 0}
--- !u!4 &4745277803133408085 stripped
Transform:
  m_CorrespondingSourceObject: {fileID: 400000, guid: 1104611d051d4e42a68391888b61b32e,
    type: 3}
  m_PrefabInstance: {fileID: 4745277803133798869}
  m_PrefabAsset: {fileID: 0}
