%YAML 1.1
%TAG !u! tag:unity3d.com,2011:
--- !u!1001 &8451496097697949382
PrefabInstance:
  m_ObjectHideFlags: 0
  serializedVersion: 2
  m_Modification:
    m_TransformParent: {fileID: 0}
    m_Modifications:
    - target: {fileID: 2145483755446897041, guid: 85e78809c1c721c45b5759bb71ddf4d2,
        type: 3}
      propertyPath: m_RootOrder
      value: 0
      objectReference: {fileID: 0}
    - target: {fileID: 2145483755446897041, guid: 85e78809c1c721c45b5759bb71ddf4d2,
        type: 3}
      propertyPath: m_LocalPosition.x
      value: 0
      objectReference: {fileID: 0}
    - target: {fileID: 2145483755446897041, guid: 85e78809c1c721c45b5759bb71ddf4d2,
        type: 3}
      propertyPath: m_LocalPosition.y
      value: 0
      objectReference: {fileID: 0}
    - target: {fileID: 2145483755446897041, guid: 85e78809c1c721c45b5759bb71ddf4d2,
        type: 3}
      propertyPath: m_LocalPosition.z
      value: 0
      objectReference: {fileID: 0}
    - target: {fileID: 2145483755446897041, guid: 85e78809c1c721c45b5759bb71ddf4d2,
        type: 3}
      propertyPath: m_LocalRotation.w
      value: 1
      objectReference: {fileID: 0}
    - target: {fileID: 2145483755446897041, guid: 85e78809c1c721c45b5759bb71ddf4d2,
        type: 3}
      propertyPath: m_LocalRotation.x
      value: -0
      objectReference: {fileID: 0}
    - target: {fileID: 2145483755446897041, guid: 85e78809c1c721c45b5759bb71ddf4d2,
        type: 3}
      propertyPath: m_LocalRotation.y
      value: -0
      objectReference: {fileID: 0}
    - target: {fileID: 2145483755446897041, guid: 85e78809c1c721c45b5759bb71ddf4d2,
        type: 3}
      propertyPath: m_LocalRotation.z
      value: -0
      objectReference: {fileID: 0}
    - target: {fileID: 2145483755446897041, guid: 85e78809c1c721c45b5759bb71ddf4d2,
        type: 3}
      propertyPath: m_LocalEulerAnglesHint.x
      value: 0
      objectReference: {fileID: 0}
    - target: {fileID: 2145483755446897041, guid: 85e78809c1c721c45b5759bb71ddf4d2,
        type: 3}
      propertyPath: m_LocalEulerAnglesHint.y
      value: 0
      objectReference: {fileID: 0}
    - target: {fileID: 2145483755446897041, guid: 85e78809c1c721c45b5759bb71ddf4d2,
        type: 3}
      propertyPath: m_LocalEulerAnglesHint.z
      value: 0
      objectReference: {fileID: 0}
    - target: {fileID: 2145483756000022384, guid: 85e78809c1c721c45b5759bb71ddf4d2,
        type: 3}
      propertyPath: m_Name
      value: PressableButtonHoloLens2ToggleSwitch_32x32
      objectReference: {fileID: 0}
    - target: {fileID: 2145483756587458176, guid: 85e78809c1c721c45b5759bb71ddf4d2,
        type: 3}
      propertyPath: m_text
      value: Switch
      objectReference: {fileID: 0}
    - target: {fileID: 2145483756587458176, guid: 85e78809c1c721c45b5759bb71ddf4d2,
        type: 3}
      propertyPath: m_textInfo.lineCount
      value: 1
      objectReference: {fileID: 0}
    - target: {fileID: 2145483756587458176, guid: 85e78809c1c721c45b5759bb71ddf4d2,
        type: 3}
      propertyPath: m_textInfo.pageCount
      value: 1
      objectReference: {fileID: 0}
    - target: {fileID: 2145483756587458176, guid: 85e78809c1c721c45b5759bb71ddf4d2,
        type: 3}
      propertyPath: m_textInfo.wordCount
      value: 1
      objectReference: {fileID: 0}
    - target: {fileID: 2145483756587458176, guid: 85e78809c1c721c45b5759bb71ddf4d2,
        type: 3}
      propertyPath: m_textInfo.characterCount
      value: 6
      objectReference: {fileID: 0}
    - target: {fileID: 2145483756587458302, guid: 85e78809c1c721c45b5759bb71ddf4d2,
        type: 3}
      propertyPath: m_Mesh
      value: 
      objectReference: {fileID: 0}
    - target: {fileID: 4368776790820706505, guid: 85e78809c1c721c45b5759bb71ddf4d2,
        type: 3}
      propertyPath: m_Mesh
      value: 
      objectReference: {fileID: 0}
    - target: {fileID: 5831530870026651731, guid: 85e78809c1c721c45b5759bb71ddf4d2,
        type: 3}
      propertyPath: m_LocalScale.x
      value: 0.48
      objectReference: {fileID: 0}
    - target: {fileID: 5831530870026651731, guid: 85e78809c1c721c45b5759bb71ddf4d2,
        type: 3}
      propertyPath: m_LocalScale.y
      value: 0.48
      objectReference: {fileID: 0}
    - target: {fileID: 5831530870026651731, guid: 85e78809c1c721c45b5759bb71ddf4d2,
        type: 3}
      propertyPath: m_LocalScale.z
      value: 1
      objectReference: {fileID: 0}
    - target: {fileID: 6555103933174098846, guid: 85e78809c1c721c45b5759bb71ddf4d2,
        type: 3}
      propertyPath: m_Materials.Array.data[0]
      value: 
      objectReference: {fileID: 2100000, guid: 937eb8c218ff97343a4c3199e9d3c095, type: 2}
    - target: {fileID: 7109518070521699370, guid: 85e78809c1c721c45b5759bb71ddf4d2,
        type: 3}
      propertyPath: m_textInfo.lineCount
      value: 1
      objectReference: {fileID: 0}
    - target: {fileID: 7109518070521699370, guid: 85e78809c1c721c45b5759bb71ddf4d2,
        type: 3}
      propertyPath: m_textInfo.pageCount
      value: 1
      objectReference: {fileID: 0}
    - target: {fileID: 7109518070521699370, guid: 85e78809c1c721c45b5759bb71ddf4d2,
        type: 3}
      propertyPath: m_textInfo.wordCount
      value: 2
      objectReference: {fileID: 0}
    - target: {fileID: 7109518070521699370, guid: 85e78809c1c721c45b5759bb71ddf4d2,
        type: 3}
      propertyPath: m_textInfo.spaceCount
      value: 1
      objectReference: {fileID: 0}
    - target: {fileID: 7109518070521699370, guid: 85e78809c1c721c45b5759bb71ddf4d2,
        type: 3}
      propertyPath: m_textInfo.characterCount
      value: 12
      objectReference: {fileID: 0}
    - target: {fileID: 7718846787606012103, guid: 85e78809c1c721c45b5759bb71ddf4d2,
        type: 3}
      propertyPath: m_Materials.Array.data[0]
      value: 
      objectReference: {fileID: 2100000, guid: 20c31511c9696d44d9399b948fd84c56, type: 2}
    - target: {fileID: 8828535859172090323, guid: 85e78809c1c721c45b5759bb71ddf4d2,
        type: 3}
      propertyPath: OnClick.m_PersistentCalls.m_Calls.Array.data[0].m_Target
      value: 
      objectReference: {fileID: 0}
    - target: {fileID: 9177439870713483484, guid: 85e78809c1c721c45b5759bb71ddf4d2,
        type: 3}
      propertyPath: m_LocalScale.x
      value: 0.48
      objectReference: {fileID: 0}
    - target: {fileID: 9177439870713483484, guid: 85e78809c1c721c45b5759bb71ddf4d2,
        type: 3}
      propertyPath: m_LocalScale.y
      value: 0.48
      objectReference: {fileID: 0}
    - target: {fileID: 9177439870713483484, guid: 85e78809c1c721c45b5759bb71ddf4d2,
        type: 3}
      propertyPath: m_LocalScale.z
      value: 1
      objectReference: {fileID: 0}
    m_RemovedComponents: []
  m_SourcePrefab: {fileID: 100100000, guid: 85e78809c1c721c45b5759bb71ddf4d2, type: 3}
