%YAML 1.1
%TAG !u! tag:unity3d.com,2011:
--- !u!1 &1810780307009810672
GameObject:
  m_ObjectHideFlags: 0
  m_CorrespondingSourceObject: {fileID: 0}
  m_PrefabInstance: {fileID: 0}
  m_PrefabAsset: {fileID: 0}
  serializedVersion: 6
  m_Component:
  - component: {fileID: 451941758447183819}
  - component: {fileID: 5958081692105816045}
  m_Layer: 0
  m_Name: ButtonCollection
  m_TagString: Untagged
  m_Icon: {fileID: 0}
  m_NavMeshLayer: 0
  m_StaticEditorFlags: 0
  m_IsActive: 1
--- !u!4 &451941758447183819
Transform:
  m_ObjectHideFlags: 0
  m_CorrespondingSourceObject: {fileID: 0}
  m_PrefabInstance: {fileID: 0}
  m_PrefabAsset: {fileID: 0}
  m_GameObject: {fileID: 1810780307009810672}
  m_LocalRotation: {x: -0, y: -0, z: -0, w: 1}
  m_LocalPosition: {x: 0, y: 0, z: 0}
  m_LocalScale: {x: 1, y: 1, z: 1}
  m_Children:
  - {fileID: 4650336336337354715}
  - {fileID: 4650336336418689529}
  - {fileID: 4650336334713230625}
  m_Father: {fileID: 4650336336463898693}
  m_RootOrder: 1
  m_LocalEulerAnglesHint: {x: 0, y: 0, z: 0}
--- !u!114 &5958081692105816045
MonoBehaviour:
  m_ObjectHideFlags: 0
  m_CorrespondingSourceObject: {fileID: 0}
  m_PrefabInstance: {fileID: 0}
  m_PrefabAsset: {fileID: 0}
  m_GameObject: {fileID: 1810780307009810672}
  m_Enabled: 1
  m_EditorHideFlags: 0
  m_Script: {fileID: 11500000, guid: cf12ee76e7e00a44a9a84256760020e6, type: 3}
  m_Name: 
  m_EditorClassIdentifier: 
  nodeList: []
  ignoreInactiveTransforms: 1
  sortType: 0
  surfaceType: 1
  orientType: 0
  layout: 1
  anchor: 4
  anchorAlongAxis: 0
  columnAlignment: 0
  rowAlignment: 0
  radius: 2
  radialRange: 180
  distance: 0
  rows: 3
  columns: 3
  cellWidth: 0.032
  cellHeight: 0.032
  assetVersion: 1
--- !u!1 &4650336335355336757
GameObject:
  m_ObjectHideFlags: 0
  m_CorrespondingSourceObject: {fileID: 0}
  m_PrefabInstance: {fileID: 0}
  m_PrefabAsset: {fileID: 0}
  serializedVersion: 6
  m_Component:
  - component: {fileID: 4650336335355336754}
  - component: {fileID: 4650336335355336752}
  - component: {fileID: 4650336335355336755}
  m_Layer: 0
  m_Name: BackPlate
  m_TagString: Untagged
  m_Icon: {fileID: 0}
  m_NavMeshLayer: 0
  m_StaticEditorFlags: 0
  m_IsActive: 1
--- !u!4 &4650336335355336754
Transform:
  m_ObjectHideFlags: 0
  m_CorrespondingSourceObject: {fileID: 0}
  m_PrefabInstance: {fileID: 0}
  m_PrefabAsset: {fileID: 0}
  m_GameObject: {fileID: 4650336335355336757}
  m_LocalRotation: {x: -0, y: -0, z: -0, w: 1}
  m_LocalPosition: {x: 0, y: 0, z: 0.01}
  m_LocalScale: {x: 0.032, y: 0.096, z: 0.02}
  m_Children: []
  m_Father: {fileID: 4650336336463898693}
  m_RootOrder: 0
  m_LocalEulerAnglesHint: {x: 0, y: 0, z: 0}
--- !u!33 &4650336335355336752
MeshFilter:
  m_ObjectHideFlags: 0
  m_CorrespondingSourceObject: {fileID: 0}
  m_PrefabInstance: {fileID: 0}
  m_PrefabAsset: {fileID: 0}
  m_GameObject: {fileID: 4650336335355336757}
  m_Mesh: {fileID: 10210, guid: 0000000000000000e000000000000000, type: 0}
--- !u!23 &4650336335355336755
MeshRenderer:
  m_ObjectHideFlags: 0
  m_CorrespondingSourceObject: {fileID: 0}
  m_PrefabInstance: {fileID: 0}
  m_PrefabAsset: {fileID: 0}
  m_GameObject: {fileID: 4650336335355336757}
  m_Enabled: 1
  m_CastShadows: 1
  m_ReceiveShadows: 1
  m_DynamicOccludee: 1
  m_MotionVectors: 1
  m_LightProbeUsage: 1
  m_ReflectionProbeUsage: 1
  m_RayTracingMode: 2
  m_RayTraceProcedural: 0
  m_RenderingLayerMask: 1
  m_RendererPriority: 0
  m_Materials:
  - {fileID: 2100000, guid: ec72a3a105768f746b556a8dfdae61a8, type: 2}
  m_StaticBatchInfo:
    firstSubMesh: 0
    subMeshCount: 0
  m_StaticBatchRoot: {fileID: 0}
  m_ProbeAnchor: {fileID: 0}
  m_LightProbeVolumeOverride: {fileID: 0}
  m_ScaleInLightmap: 1
  m_ReceiveGI: 1
  m_PreserveUVs: 0
  m_IgnoreNormalsForChartDetection: 0
  m_ImportantGI: 0
  m_StitchLightmapSeams: 0
  m_SelectedEditorRenderState: 3
  m_MinimumChartSize: 4
  m_AutoUVMaxDistance: 0.5
  m_AutoUVMaxAngle: 89
  m_LightmapParameters: {fileID: 0}
  m_SortingLayerID: 0
  m_SortingLayer: 0
  m_SortingOrder: 0
  m_AdditionalVertexStreams: {fileID: 0}
--- !u!1 &4650336336052702775
GameObject:
  m_ObjectHideFlags: 0
  m_CorrespondingSourceObject: {fileID: 0}
  m_PrefabInstance: {fileID: 0}
  m_PrefabAsset: {fileID: 0}
  serializedVersion: 6
  m_Component:
  - component: {fileID: 4650336336052702772}
  - component: {fileID: 4650336336052702771}
  - component: {fileID: 4650336336052702770}
  - component: {fileID: 4650336336052702773}
  - component: {fileID: 972520988}
  - component: {fileID: 972520989}
  - component: {fileID: 972520991}
  m_Layer: 0
  m_Name: HandMenu_Small_HideOnHandDrop
  m_TagString: Untagged
  m_Icon: {fileID: 0}
  m_NavMeshLayer: 0
  m_StaticEditorFlags: 0
  m_IsActive: 1
--- !u!4 &4650336336052702772
Transform:
  m_ObjectHideFlags: 0
  m_CorrespondingSourceObject: {fileID: 0}
  m_PrefabInstance: {fileID: 0}
  m_PrefabAsset: {fileID: 0}
  m_GameObject: {fileID: 4650336336052702775}
  m_LocalRotation: {x: 0, y: 0, z: 0, w: 1}
  m_LocalPosition: {x: 0, y: 0, z: 0}
  m_LocalScale: {x: 1, y: 1, z: 1}
  m_Children:
  - {fileID: 4650336336463898693}
  m_Father: {fileID: 0}
  m_RootOrder: 0
  m_LocalEulerAnglesHint: {x: 0, y: 0, z: 0}
--- !u!114 &4650336336052702771
MonoBehaviour:
  m_ObjectHideFlags: 0
  m_CorrespondingSourceObject: {fileID: 0}
  m_PrefabInstance: {fileID: 0}
  m_PrefabAsset: {fileID: 0}
  m_GameObject: {fileID: 4650336336052702775}
  m_Enabled: 1
  m_EditorHideFlags: 0
  m_Script: {fileID: 11500000, guid: 248664dc0e60dca4fb35d70cd0c5695b, type: 3}
  m_Name: 
  m_EditorClassIdentifier: 
  drawBoundsGizmo: 1
  drawLocalBoundsGizmo: 0
--- !u!114 &4650336336052702770
MonoBehaviour:
  m_ObjectHideFlags: 0
  m_CorrespondingSourceObject: {fileID: 0}
  m_PrefabInstance: {fileID: 0}
  m_PrefabAsset: {fileID: 0}
  m_GameObject: {fileID: 4650336336052702775}
  m_Enabled: 1
  m_EditorHideFlags: 0
  m_Script: {fileID: 11500000, guid: b55691ad5b034fe6966763a6e23818d2, type: 3}
  m_Name: 
  m_EditorClassIdentifier: 
  trackedTargetType: 6
  trackedHandness: 3
  trackedHandJoint: 2
  transformOverride: {fileID: 0}
  additionalOffset: {x: 0, y: 0, z: 0.03}
  additionalRotation: {x: 0, y: -5, z: 0}
  updateSolvers: 1
--- !u!114 &4650336336052702773
MonoBehaviour:
  m_ObjectHideFlags: 0
  m_CorrespondingSourceObject: {fileID: 0}
  m_PrefabInstance: {fileID: 0}
  m_PrefabAsset: {fileID: 0}
  m_GameObject: {fileID: 4650336336052702775}
  m_Enabled: 1
  m_EditorHideFlags: 0
  m_Script: {fileID: 11500000, guid: 956af6ee031a2eb47b9c0ab5dcd50fd7, type: 3}
  m_Name: 
  m_EditorClassIdentifier: 
  updateLinkedTransform: 0
  moveLerpTime: 0.1
  rotateLerpTime: 0.1
  scaleLerpTime: 0
  maintainScaleOnInitialization: 1
  smoothing: 1
  lifetime: 0
  safeZone: 0
  safeZoneBuffer: 0.1
  updateWhenOppositeHandNear: 0
  hideHandCursorsOnActivate: 1
  rotationBehavior: 2
  offsetBehavior: 0
  forwardOffset: 0
  safeZoneAngleOffset: 0
  onHandActivate:
    m_PersistentCalls:
      m_Calls: []
  onHandDeactivate:
    m_PersistentCalls:
      m_Calls: []
  onFirstHandDetected:
    m_PersistentCalls:
      m_Calls:
      - m_Target: {fileID: 4650336336463898692}
        m_TargetAssemblyTypeName: 
        m_MethodName: SetActive
        m_Mode: 6
        m_Arguments:
          m_ObjectArgument: {fileID: 0}
          m_ObjectArgumentAssemblyTypeName: UnityEngine.Object, UnityEngine
          m_IntArgument: 0
          m_FloatArgument: 0
          m_StringArgument: 
          m_BoolArgument: 1
        m_CallState: 2
  onLastHandLost:
    m_PersistentCalls:
      m_Calls:
      - m_Target: {fileID: 4650336336463898692}
        m_TargetAssemblyTypeName: 
        m_MethodName: SetActive
        m_Mode: 6
        m_Arguments:
          m_ObjectArgument: {fileID: 0}
          m_ObjectArgumentAssemblyTypeName: UnityEngine.Object, UnityEngine
          m_IntArgument: 0
          m_FloatArgument: 0
          m_StringArgument: 
          m_BoolArgument: 0
        m_CallState: 2
  facingCameraTrackingThreshold: 75
  requireFlatHand: 0
  flatHandThreshold: 45
  followHandUntilFacingCamera: 1
  followHandCameraFacingThresholdAngle: 50
  useGazeActivation: 1
  eyeGazeProximityThreshold: 0.0125
  headGazeProximityThreshold: 0.03
--- !u!114 &972520988
MonoBehaviour:
  m_ObjectHideFlags: 0
  m_CorrespondingSourceObject: {fileID: 0}
  m_PrefabInstance: {fileID: 0}
  m_PrefabAsset: {fileID: 0}
  m_GameObject: {fileID: 4650336336052702775}
  m_Enabled: 1
  m_EditorHideFlags: 0
  m_Script: {fileID: 11500000, guid: 45b3eff181cc4244a8a14234096e62fd, type: 3}
  m_Name: 
  m_EditorClassIdentifier: 
  isFocusRequired: 0
  keywords:
  - keyword: Show hand menu
    response:
      m_PersistentCalls:
        m_Calls:
        - m_Target: {fileID: 972520991}
          m_TargetAssemblyTypeName: 
          m_MethodName: ChangeTrackedTargetTypeHead
          m_Mode: 1
          m_Arguments:
            m_ObjectArgument: {fileID: 0}
            m_ObjectArgumentAssemblyTypeName: UnityEngine.Object, UnityEngine
            m_IntArgument: 0
            m_FloatArgument: 0
            m_StringArgument: 
            m_BoolArgument: 0
          m_CallState: 2
        - m_Target: {fileID: 4650336336052702773}
          m_TargetAssemblyTypeName: 
          m_MethodName: set_enabled
          m_Mode: 6
          m_Arguments:
            m_ObjectArgument: {fileID: 0}
            m_ObjectArgumentAssemblyTypeName: UnityEngine.Object, UnityEngine
            m_IntArgument: 0
            m_FloatArgument: 0
            m_StringArgument: 
            m_BoolArgument: 0
          m_CallState: 2
        - m_Target: {fileID: 972520989}
          m_TargetAssemblyTypeName: 
          m_MethodName: set_enabled
          m_Mode: 6
          m_Arguments:
            m_ObjectArgument: {fileID: 0}
            m_ObjectArgumentAssemblyTypeName: UnityEngine.Object, UnityEngine
            m_IntArgument: 0
            m_FloatArgument: 0
            m_StringArgument: 
            m_BoolArgument: 1
          m_CallState: 2
        - m_Target: {fileID: 4650336336463898692}
          m_TargetAssemblyTypeName: 
          m_MethodName: SetActive
          m_Mode: 6
          m_Arguments:
            m_ObjectArgument: {fileID: 0}
            m_ObjectArgumentAssemblyTypeName: UnityEngine.Object, UnityEngine
            m_IntArgument: 0
            m_FloatArgument: 0
            m_StringArgument: 
            m_BoolArgument: 1
          m_CallState: 2
  - keyword: Hide hand menu
    response:
      m_PersistentCalls:
        m_Calls:
        - m_Target: {fileID: 4650336336463898692}
          m_TargetAssemblyTypeName: 
          m_MethodName: SetActive
          m_Mode: 6
          m_Arguments:
            m_ObjectArgument: {fileID: 0}
            m_ObjectArgumentAssemblyTypeName: UnityEngine.Object, UnityEngine
            m_IntArgument: 0
            m_FloatArgument: 0
            m_StringArgument: 
            m_BoolArgument: 0
          m_CallState: 2
        - m_Target: {fileID: 972520991}
          m_TargetAssemblyTypeName: 
          m_MethodName: ChangeTrackedTargetTypeHandJoint
          m_Mode: 1
          m_Arguments:
            m_ObjectArgument: {fileID: 0}
            m_ObjectArgumentAssemblyTypeName: UnityEngine.Object, UnityEngine
            m_IntArgument: 0
            m_FloatArgument: 0
            m_StringArgument: 
            m_BoolArgument: 0
          m_CallState: 2
        - m_Target: {fileID: 972520989}
          m_TargetAssemblyTypeName: 
          m_MethodName: set_enabled
          m_Mode: 6
          m_Arguments:
            m_ObjectArgument: {fileID: 0}
            m_ObjectArgumentAssemblyTypeName: UnityEngine.Object, UnityEngine
            m_IntArgument: 0
            m_FloatArgument: 0
            m_StringArgument: 
            m_BoolArgument: 0
          m_CallState: 2
        - m_Target: {fileID: 4650336336052702773}
          m_TargetAssemblyTypeName: 
          m_MethodName: set_enabled
          m_Mode: 6
          m_Arguments:
            m_ObjectArgument: {fileID: 0}
            m_ObjectArgumentAssemblyTypeName: UnityEngine.Object, UnityEngine
            m_IntArgument: 0
            m_FloatArgument: 0
            m_StringArgument: 
            m_BoolArgument: 1
          m_CallState: 2
  persistentKeywords: 0
  speechConfirmationTooltipPrefab: {fileID: 8046114618238072051, guid: 271778f6c957b524981067a81d238394,
    type: 3}
--- !u!114 &972520989
MonoBehaviour:
  m_ObjectHideFlags: 0
  m_CorrespondingSourceObject: {fileID: 0}
  m_PrefabInstance: {fileID: 0}
  m_PrefabAsset: {fileID: 0}
  m_GameObject: {fileID: 4650336336052702775}
  m_Enabled: 0
  m_EditorHideFlags: 0
  m_Script: {fileID: 11500000, guid: 4479a0bd44d822241a4c5f4890c481c0, type: 3}
  m_Name: 
  m_EditorClassIdentifier: 
  updateLinkedTransform: 0
  moveLerpTime: 0.5
  rotateLerpTime: 0.1
  scaleLerpTime: 0
  maintainScaleOnInitialization: 1
  smoothing: 1
  lifetime: 0
  orientationType: 1
  faceTrackedObjectWhileClamped: 1
  faceUserDefinedTargetTransform: 0
  targetToFace: {fileID: 0}
  pivotAxis: 7
  minDistance: 0.3
  maxDistance: 0.9
  defaultDistance: 0.7
  maxViewHorizontalDegrees: 30
  maxViewVerticalDegrees: 20
  reorientWhenOutsideParameters: 1
  orientToControllerDeadzoneDegrees: 60
  ignoreAngleClamp: 0
  ignoreDistanceClamp: 0
  ignoreReferencePitchAndRoll: 0
  pitchOffset: 0
  verticalMaxDistance: 0
  angularClampMode: 0
  tetherAngleSteps: 6
  boundsScaler: 1
--- !u!114 &972520991
MonoBehaviour:
  m_ObjectHideFlags: 0
  m_CorrespondingSourceObject: {fileID: 0}
  m_PrefabInstance: {fileID: 0}
  m_PrefabAsset: {fileID: 0}
  m_GameObject: {fileID: 4650336336052702775}
  m_Enabled: 1
  m_EditorHideFlags: 0
  m_Script: {fileID: 11500000, guid: 0b31b6fc6b6a28249adae3628ec542ec, type: 3}
  m_Name: 
  m_EditorClassIdentifier: 
  solverHandler: {fileID: 4650336336052702770}
--- !u!1 &4650336336463898692
GameObject:
  m_ObjectHideFlags: 0
  m_CorrespondingSourceObject: {fileID: 0}
  m_PrefabInstance: {fileID: 0}
  m_PrefabAsset: {fileID: 0}
  serializedVersion: 6
  m_Component:
  - component: {fileID: 4650336336463898693}
  m_Layer: 0
  m_Name: MenuContent
  m_TagString: Untagged
  m_Icon: {fileID: 0}
  m_NavMeshLayer: 0
  m_StaticEditorFlags: 0
  m_IsActive: 1
--- !u!4 &4650336336463898693
Transform:
  m_ObjectHideFlags: 0
  m_CorrespondingSourceObject: {fileID: 0}
  m_PrefabInstance: {fileID: 0}
  m_PrefabAsset: {fileID: 0}
  m_GameObject: {fileID: 4650336336463898692}
  m_LocalRotation: {x: -0, y: -0, z: -0, w: 1}
  m_LocalPosition: {x: 0, y: 0, z: 0}
  m_LocalScale: {x: 1, y: 1, z: 1}
  m_Children:
  - {fileID: 4650336335355336754}
  - {fileID: 451941758447183819}
  m_Father: {fileID: 4650336336052702772}
  m_RootOrder: 0
  m_LocalEulerAnglesHint: {x: 0, y: 0, z: 0}
--- !u!1001 &4650336335013562356
PrefabInstance:
  m_ObjectHideFlags: 0
  serializedVersion: 2
  m_Modification:
    m_TransformParent: {fileID: 451941758447183819}
    m_Modifications:
    - target: {fileID: 316800718, guid: 45fd0ad89d6d17b4fbe68eb48dbe9de9, type: 3}
      propertyPath: m_Name
      value: PressableButton
      objectReference: {fileID: 0}
    - target: {fileID: 937783104, guid: 45fd0ad89d6d17b4fbe68eb48dbe9de9, type: 3}
      propertyPath: m_Mesh
      value: 
      objectReference: {fileID: 0}
    - target: {fileID: 1944713263, guid: 45fd0ad89d6d17b4fbe68eb48dbe9de9, type: 3}
      propertyPath: m_RootOrder
      value: 0
      objectReference: {fileID: 0}
    - target: {fileID: 1944713263, guid: 45fd0ad89d6d17b4fbe68eb48dbe9de9, type: 3}
      propertyPath: m_LocalPosition.x
      value: 0
      objectReference: {fileID: 0}
    - target: {fileID: 1944713263, guid: 45fd0ad89d6d17b4fbe68eb48dbe9de9, type: 3}
      propertyPath: m_LocalPosition.y
      value: 0.031999998
      objectReference: {fileID: 0}
    - target: {fileID: 1944713263, guid: 45fd0ad89d6d17b4fbe68eb48dbe9de9, type: 3}
      propertyPath: m_LocalPosition.z
      value: 0
      objectReference: {fileID: 0}
    - target: {fileID: 1944713263, guid: 45fd0ad89d6d17b4fbe68eb48dbe9de9, type: 3}
      propertyPath: m_LocalRotation.w
      value: 1
      objectReference: {fileID: 0}
    - target: {fileID: 1944713263, guid: 45fd0ad89d6d17b4fbe68eb48dbe9de9, type: 3}
      propertyPath: m_LocalRotation.x
      value: -0
      objectReference: {fileID: 0}
    - target: {fileID: 1944713263, guid: 45fd0ad89d6d17b4fbe68eb48dbe9de9, type: 3}
      propertyPath: m_LocalRotation.y
      value: -0
      objectReference: {fileID: 0}
    - target: {fileID: 1944713263, guid: 45fd0ad89d6d17b4fbe68eb48dbe9de9, type: 3}
      propertyPath: m_LocalRotation.z
      value: -0
      objectReference: {fileID: 0}
    - target: {fileID: 1944713263, guid: 45fd0ad89d6d17b4fbe68eb48dbe9de9, type: 3}
      propertyPath: m_LocalEulerAnglesHint.x
      value: 0
      objectReference: {fileID: 0}
    - target: {fileID: 1944713263, guid: 45fd0ad89d6d17b4fbe68eb48dbe9de9, type: 3}
      propertyPath: m_LocalEulerAnglesHint.y
      value: 0
      objectReference: {fileID: 0}
    - target: {fileID: 1944713263, guid: 45fd0ad89d6d17b4fbe68eb48dbe9de9, type: 3}
      propertyPath: m_LocalEulerAnglesHint.z
      value: 0
      objectReference: {fileID: 0}
    - target: {fileID: 329340111926477333, guid: 45fd0ad89d6d17b4fbe68eb48dbe9de9,
        type: 3}
      propertyPath: m_IsActive
      value: 0
      objectReference: {fileID: 0}
    - target: {fileID: 7652376644636595447, guid: 45fd0ad89d6d17b4fbe68eb48dbe9de9,
        type: 3}
      propertyPath: iconQuadTexture
      value: 
      objectReference: {fileID: 2800000, guid: 7de780622ddab5e49b73d5d7a806faf9, type: 3}
    - target: {fileID: 9181818329810857364, guid: 45fd0ad89d6d17b4fbe68eb48dbe9de9,
        type: 3}
      propertyPath: m_textInfo.lineCount
      value: 0
      objectReference: {fileID: 0}
    - target: {fileID: 9181818329810857364, guid: 45fd0ad89d6d17b4fbe68eb48dbe9de9,
        type: 3}
      propertyPath: m_textInfo.pageCount
      value: 0
      objectReference: {fileID: 0}
    - target: {fileID: 9181818329810857364, guid: 45fd0ad89d6d17b4fbe68eb48dbe9de9,
        type: 3}
      propertyPath: m_textInfo.wordCount
      value: 0
      objectReference: {fileID: 0}
    - target: {fileID: 9181818329810857364, guid: 45fd0ad89d6d17b4fbe68eb48dbe9de9,
        type: 3}
      propertyPath: m_textInfo.spaceCount
      value: 0
      objectReference: {fileID: 0}
    - target: {fileID: 9181818329810857364, guid: 45fd0ad89d6d17b4fbe68eb48dbe9de9,
        type: 3}
      propertyPath: m_textInfo.characterCount
      value: 0
      objectReference: {fileID: 0}
    m_RemovedComponents: []
  m_SourcePrefab: {fileID: 100100000, guid: 45fd0ad89d6d17b4fbe68eb48dbe9de9, type: 3}
--- !u!4 &4650336336337354715 stripped
Transform:
  m_CorrespondingSourceObject: {fileID: 1944713263, guid: 45fd0ad89d6d17b4fbe68eb48dbe9de9,
    type: 3}
  m_PrefabInstance: {fileID: 4650336335013562356}
  m_PrefabAsset: {fileID: 0}
--- !u!1001 &4650336335066442198
PrefabInstance:
  m_ObjectHideFlags: 0
  serializedVersion: 2
  m_Modification:
    m_TransformParent: {fileID: 451941758447183819}
    m_Modifications:
    - target: {fileID: 316800718, guid: 45fd0ad89d6d17b4fbe68eb48dbe9de9, type: 3}
      propertyPath: m_Name
      value: PressableButton (1)
      objectReference: {fileID: 0}
    - target: {fileID: 937783104, guid: 45fd0ad89d6d17b4fbe68eb48dbe9de9, type: 3}
      propertyPath: m_Mesh
      value: 
      objectReference: {fileID: 0}
    - target: {fileID: 1944713263, guid: 45fd0ad89d6d17b4fbe68eb48dbe9de9, type: 3}
      propertyPath: m_RootOrder
      value: 1
      objectReference: {fileID: 0}
    - target: {fileID: 1944713263, guid: 45fd0ad89d6d17b4fbe68eb48dbe9de9, type: 3}
      propertyPath: m_LocalPosition.x
      value: 0
      objectReference: {fileID: 0}
    - target: {fileID: 1944713263, guid: 45fd0ad89d6d17b4fbe68eb48dbe9de9, type: 3}
      propertyPath: m_LocalPosition.y
      value: -0.0000000018626451
      objectReference: {fileID: 0}
    - target: {fileID: 1944713263, guid: 45fd0ad89d6d17b4fbe68eb48dbe9de9, type: 3}
      propertyPath: m_LocalPosition.z
      value: 0
      objectReference: {fileID: 0}
    - target: {fileID: 1944713263, guid: 45fd0ad89d6d17b4fbe68eb48dbe9de9, type: 3}
      propertyPath: m_LocalRotation.w
      value: 1
      objectReference: {fileID: 0}
    - target: {fileID: 1944713263, guid: 45fd0ad89d6d17b4fbe68eb48dbe9de9, type: 3}
      propertyPath: m_LocalRotation.x
      value: -0
      objectReference: {fileID: 0}
    - target: {fileID: 1944713263, guid: 45fd0ad89d6d17b4fbe68eb48dbe9de9, type: 3}
      propertyPath: m_LocalRotation.y
      value: -0
      objectReference: {fileID: 0}
    - target: {fileID: 1944713263, guid: 45fd0ad89d6d17b4fbe68eb48dbe9de9, type: 3}
      propertyPath: m_LocalRotation.z
      value: -0
      objectReference: {fileID: 0}
    - target: {fileID: 1944713263, guid: 45fd0ad89d6d17b4fbe68eb48dbe9de9, type: 3}
      propertyPath: m_LocalEulerAnglesHint.x
      value: 0
      objectReference: {fileID: 0}
    - target: {fileID: 1944713263, guid: 45fd0ad89d6d17b4fbe68eb48dbe9de9, type: 3}
      propertyPath: m_LocalEulerAnglesHint.y
      value: 0
      objectReference: {fileID: 0}
    - target: {fileID: 1944713263, guid: 45fd0ad89d6d17b4fbe68eb48dbe9de9, type: 3}
      propertyPath: m_LocalEulerAnglesHint.z
      value: 0
      objectReference: {fileID: 0}
    - target: {fileID: 329340111926477333, guid: 45fd0ad89d6d17b4fbe68eb48dbe9de9,
        type: 3}
      propertyPath: m_IsActive
      value: 0
      objectReference: {fileID: 0}
    - target: {fileID: 7652376644636595447, guid: 45fd0ad89d6d17b4fbe68eb48dbe9de9,
        type: 3}
      propertyPath: iconQuadTexture
      value: 
      objectReference: {fileID: 2800000, guid: 0771cd1b5e4131e45afe250cd1713737, type: 3}
    - target: {fileID: 9181818329810857364, guid: 45fd0ad89d6d17b4fbe68eb48dbe9de9,
        type: 3}
      propertyPath: m_textInfo.lineCount
      value: 0
      objectReference: {fileID: 0}
    - target: {fileID: 9181818329810857364, guid: 45fd0ad89d6d17b4fbe68eb48dbe9de9,
        type: 3}
      propertyPath: m_textInfo.pageCount
      value: 0
      objectReference: {fileID: 0}
    - target: {fileID: 9181818329810857364, guid: 45fd0ad89d6d17b4fbe68eb48dbe9de9,
        type: 3}
      propertyPath: m_textInfo.wordCount
      value: 0
      objectReference: {fileID: 0}
    - target: {fileID: 9181818329810857364, guid: 45fd0ad89d6d17b4fbe68eb48dbe9de9,
        type: 3}
      propertyPath: m_textInfo.spaceCount
      value: 0
      objectReference: {fileID: 0}
    - target: {fileID: 9181818329810857364, guid: 45fd0ad89d6d17b4fbe68eb48dbe9de9,
        type: 3}
      propertyPath: m_textInfo.characterCount
      value: 0
      objectReference: {fileID: 0}
    m_RemovedComponents: []
  m_SourcePrefab: {fileID: 100100000, guid: 45fd0ad89d6d17b4fbe68eb48dbe9de9, type: 3}
--- !u!4 &4650336336418689529 stripped
Transform:
  m_CorrespondingSourceObject: {fileID: 1944713263, guid: 45fd0ad89d6d17b4fbe68eb48dbe9de9,
    type: 3}
  m_PrefabInstance: {fileID: 4650336335066442198}
  m_PrefabAsset: {fileID: 0}
--- !u!1001 &4650336336635849998
PrefabInstance:
  m_ObjectHideFlags: 0
  serializedVersion: 2
  m_Modification:
    m_TransformParent: {fileID: 451941758447183819}
    m_Modifications:
    - target: {fileID: 316800718, guid: 45fd0ad89d6d17b4fbe68eb48dbe9de9, type: 3}
      propertyPath: m_Name
      value: PressableButton (2)
      objectReference: {fileID: 0}
    - target: {fileID: 937783102, guid: 45fd0ad89d6d17b4fbe68eb48dbe9de9, type: 3}
      propertyPath: m_textInfo.lineCount
      value: 1
      objectReference: {fileID: 0}
    - target: {fileID: 937783102, guid: 45fd0ad89d6d17b4fbe68eb48dbe9de9, type: 3}
      propertyPath: m_textInfo.pageCount
      value: 1
      objectReference: {fileID: 0}
    - target: {fileID: 937783102, guid: 45fd0ad89d6d17b4fbe68eb48dbe9de9, type: 3}
      propertyPath: m_textInfo.wordCount
      value: 1
      objectReference: {fileID: 0}
    - target: {fileID: 937783102, guid: 45fd0ad89d6d17b4fbe68eb48dbe9de9, type: 3}
      propertyPath: m_textInfo.characterCount
      value: 6
      objectReference: {fileID: 0}
    - target: {fileID: 937783104, guid: 45fd0ad89d6d17b4fbe68eb48dbe9de9, type: 3}
      propertyPath: m_Mesh
      value: 
      objectReference: {fileID: 0}
    - target: {fileID: 1944713263, guid: 45fd0ad89d6d17b4fbe68eb48dbe9de9, type: 3}
      propertyPath: m_RootOrder
      value: 2
      objectReference: {fileID: 0}
    - target: {fileID: 1944713263, guid: 45fd0ad89d6d17b4fbe68eb48dbe9de9, type: 3}
      propertyPath: m_LocalPosition.x
      value: 0
      objectReference: {fileID: 0}
    - target: {fileID: 1944713263, guid: 45fd0ad89d6d17b4fbe68eb48dbe9de9, type: 3}
      propertyPath: m_LocalPosition.y
      value: -0.032000005
      objectReference: {fileID: 0}
    - target: {fileID: 1944713263, guid: 45fd0ad89d6d17b4fbe68eb48dbe9de9, type: 3}
      propertyPath: m_LocalPosition.z
      value: 0
      objectReference: {fileID: 0}
    - target: {fileID: 1944713263, guid: 45fd0ad89d6d17b4fbe68eb48dbe9de9, type: 3}
      propertyPath: m_LocalRotation.w
      value: 1
      objectReference: {fileID: 0}
    - target: {fileID: 1944713263, guid: 45fd0ad89d6d17b4fbe68eb48dbe9de9, type: 3}
      propertyPath: m_LocalRotation.x
      value: -0
      objectReference: {fileID: 0}
    - target: {fileID: 1944713263, guid: 45fd0ad89d6d17b4fbe68eb48dbe9de9, type: 3}
      propertyPath: m_LocalRotation.y
      value: -0
      objectReference: {fileID: 0}
    - target: {fileID: 1944713263, guid: 45fd0ad89d6d17b4fbe68eb48dbe9de9, type: 3}
      propertyPath: m_LocalRotation.z
      value: -0
      objectReference: {fileID: 0}
    - target: {fileID: 1944713263, guid: 45fd0ad89d6d17b4fbe68eb48dbe9de9, type: 3}
      propertyPath: m_LocalEulerAnglesHint.x
      value: 0
      objectReference: {fileID: 0}
    - target: {fileID: 1944713263, guid: 45fd0ad89d6d17b4fbe68eb48dbe9de9, type: 3}
      propertyPath: m_LocalEulerAnglesHint.y
      value: 0
      objectReference: {fileID: 0}
    - target: {fileID: 1944713263, guid: 45fd0ad89d6d17b4fbe68eb48dbe9de9, type: 3}
      propertyPath: m_LocalEulerAnglesHint.z
      value: 0
      objectReference: {fileID: 0}
    - target: {fileID: 329340111926477333, guid: 45fd0ad89d6d17b4fbe68eb48dbe9de9,
        type: 3}
      propertyPath: m_IsActive
      value: 0
      objectReference: {fileID: 0}
    - target: {fileID: 7652376644636595447, guid: 45fd0ad89d6d17b4fbe68eb48dbe9de9,
        type: 3}
      propertyPath: iconQuadTexture
      value: 
      objectReference: {fileID: 2800000, guid: b5066c514f7f02f4292cf842f3c8b75f, type: 3}
    - target: {fileID: 9181818329810857364, guid: 45fd0ad89d6d17b4fbe68eb48dbe9de9,
        type: 3}
      propertyPath: m_textInfo.lineCount
      value: 0
      objectReference: {fileID: 0}
    - target: {fileID: 9181818329810857364, guid: 45fd0ad89d6d17b4fbe68eb48dbe9de9,
        type: 3}
      propertyPath: m_textInfo.pageCount
      value: 0
      objectReference: {fileID: 0}
    - target: {fileID: 9181818329810857364, guid: 45fd0ad89d6d17b4fbe68eb48dbe9de9,
        type: 3}
      propertyPath: m_textInfo.wordCount
      value: 0
      objectReference: {fileID: 0}
    - target: {fileID: 9181818329810857364, guid: 45fd0ad89d6d17b4fbe68eb48dbe9de9,
        type: 3}
      propertyPath: m_textInfo.spaceCount
      value: 0
      objectReference: {fileID: 0}
    - target: {fileID: 9181818329810857364, guid: 45fd0ad89d6d17b4fbe68eb48dbe9de9,
        type: 3}
      propertyPath: m_textInfo.characterCount
      value: 0
      objectReference: {fileID: 0}
    m_RemovedComponents: []
  m_SourcePrefab: {fileID: 100100000, guid: 45fd0ad89d6d17b4fbe68eb48dbe9de9, type: 3}
--- !u!4 &4650336334713230625 stripped
Transform:
  m_CorrespondingSourceObject: {fileID: 1944713263, guid: 45fd0ad89d6d17b4fbe68eb48dbe9de9,
    type: 3}
  m_PrefabInstance: {fileID: 4650336336635849998}
  m_PrefabAsset: {fileID: 0}
