%YAML 1.1
%TAG !u! tag:unity3d.com,2011:
--- !u!1 &2665847548756678551
GameObject:
  m_ObjectHideFlags: 0
  m_CorrespondingSourceObject: {fileID: 0}
  m_PrefabInstance: {fileID: 0}
  m_PrefabAsset: {fileID: 0}
  serializedVersion: 6
  m_Component:
  - component: {fileID: 2665847548756678544}
  - component: {fileID: 2665847548756678546}
  - component: {fileID: 2665847548756678545}
  m_Layer: 0
  m_Name: BackPlate
  m_TagString: Untagged
  m_Icon: {fileID: 0}
  m_NavMeshLayer: 0
  m_StaticEditorFlags: 0
  m_IsActive: 1
--- !u!4 &2665847548756678544
Transform:
  m_ObjectHideFlags: 0
  m_CorrespondingSourceObject: {fileID: 0}
  m_PrefabInstance: {fileID: 0}
  m_PrefabAsset: {fileID: 0}
  m_GameObject: {fileID: 2665847548756678551}
  m_LocalRotation: {x: -0, y: -0, z: -0, w: 1}
  m_LocalPosition: {x: 0, y: 0, z: 0.01}
  m_LocalScale: {x: 0.064, y: 0.096, z: 0.02}
  m_Children: []
  m_Father: {fileID: 2665847549932021735}
  m_RootOrder: 0
  m_LocalEulerAnglesHint: {x: 0, y: 0, z: 0}
--- !u!33 &2665847548756678546
MeshFilter:
  m_ObjectHideFlags: 0
  m_CorrespondingSourceObject: {fileID: 0}
  m_PrefabInstance: {fileID: 0}
  m_PrefabAsset: {fileID: 0}
  m_GameObject: {fileID: 2665847548756678551}
  m_Mesh: {fileID: 10210, guid: 0000000000000000e000000000000000, type: 0}
--- !u!23 &2665847548756678545
MeshRenderer:
  m_ObjectHideFlags: 0
  m_CorrespondingSourceObject: {fileID: 0}
  m_PrefabInstance: {fileID: 0}
  m_PrefabAsset: {fileID: 0}
  m_GameObject: {fileID: 2665847548756678551}
  m_Enabled: 1
  m_CastShadows: 1
  m_ReceiveShadows: 1
  m_DynamicOccludee: 1
  m_MotionVectors: 1
  m_LightProbeUsage: 1
  m_ReflectionProbeUsage: 1
  m_RayTracingMode: 2
  m_RayTraceProcedural: 0
  m_RenderingLayerMask: 1
  m_RendererPriority: 0
  m_Materials:
  - {fileID: 2100000, guid: ec72a3a105768f746b556a8dfdae61a8, type: 2}
  m_StaticBatchInfo:
    firstSubMesh: 0
    subMeshCount: 0
  m_StaticBatchRoot: {fileID: 0}
  m_ProbeAnchor: {fileID: 0}
  m_LightProbeVolumeOverride: {fileID: 0}
  m_ScaleInLightmap: 1
  m_ReceiveGI: 1
  m_PreserveUVs: 0
  m_IgnoreNormalsForChartDetection: 0
  m_ImportantGI: 0
  m_StitchLightmapSeams: 0
  m_SelectedEditorRenderState: 3
  m_MinimumChartSize: 4
  m_AutoUVMaxDistance: 0.5
  m_AutoUVMaxAngle: 89
  m_LightmapParameters: {fileID: 0}
  m_SortingLayerID: 0
  m_SortingLayer: 0
  m_SortingOrder: 0
  m_AdditionalVertexStreams: {fileID: 0}
--- !u!1 &2665847549521150357
GameObject:
  m_ObjectHideFlags: 0
  m_CorrespondingSourceObject: {fileID: 0}
  m_PrefabInstance: {fileID: 0}
  m_PrefabAsset: {fileID: 0}
  serializedVersion: 6
  m_Component:
  - component: {fileID: 2665847549521150358}
  - component: {fileID: 2665847549521150353}
  - component: {fileID: 2665847549521150352}
  - component: {fileID: 2665847549521150359}
  - component: {fileID: 3693999313254176305}
  - component: {fileID: 3693999313254176306}
  - component: {fileID: 3693999313254176308}
  m_Layer: 0
  m_Name: HandMenu_Medium_HideOnHandDrop
  m_TagString: Untagged
  m_Icon: {fileID: 0}
  m_NavMeshLayer: 0
  m_StaticEditorFlags: 0
  m_IsActive: 1
--- !u!4 &2665847549521150358
Transform:
  m_ObjectHideFlags: 0
  m_CorrespondingSourceObject: {fileID: 0}
  m_PrefabInstance: {fileID: 0}
  m_PrefabAsset: {fileID: 0}
  m_GameObject: {fileID: 2665847549521150357}
  m_LocalRotation: {x: 0, y: 0, z: 0, w: 1}
  m_LocalPosition: {x: 0, y: 0, z: 1}
  m_LocalScale: {x: 1, y: 1, z: 1}
  m_Children:
  - {fileID: 2665847549932021735}
  m_Father: {fileID: 0}
  m_RootOrder: 0
  m_LocalEulerAnglesHint: {x: 0, y: 0, z: 0}
--- !u!114 &2665847549521150353
MonoBehaviour:
  m_ObjectHideFlags: 0
  m_CorrespondingSourceObject: {fileID: 0}
  m_PrefabInstance: {fileID: 0}
  m_PrefabAsset: {fileID: 0}
  m_GameObject: {fileID: 2665847549521150357}
  m_Enabled: 1
  m_EditorHideFlags: 0
  m_Script: {fileID: 11500000, guid: 248664dc0e60dca4fb35d70cd0c5695b, type: 3}
  m_Name: 
  m_EditorClassIdentifier: 
  drawBoundsGizmo: 1
  drawLocalBoundsGizmo: 0
--- !u!114 &2665847549521150352
MonoBehaviour:
  m_ObjectHideFlags: 0
  m_CorrespondingSourceObject: {fileID: 0}
  m_PrefabInstance: {fileID: 0}
  m_PrefabAsset: {fileID: 0}
  m_GameObject: {fileID: 2665847549521150357}
  m_Enabled: 1
  m_EditorHideFlags: 0
  m_Script: {fileID: 11500000, guid: b55691ad5b034fe6966763a6e23818d2, type: 3}
  m_Name: 
  m_EditorClassIdentifier: 
  trackedTargetType: 6
  trackedHandness: 3
  trackedHandJoint: 2
  transformOverride: {fileID: 0}
  additionalOffset: {x: 0, y: 0, z: 0.03}
  additionalRotation: {x: 0, y: -5, z: 0}
  updateSolvers: 1
--- !u!114 &2665847549521150359
MonoBehaviour:
  m_ObjectHideFlags: 0
  m_CorrespondingSourceObject: {fileID: 0}
  m_PrefabInstance: {fileID: 0}
  m_PrefabAsset: {fileID: 0}
  m_GameObject: {fileID: 2665847549521150357}
  m_Enabled: 1
  m_EditorHideFlags: 0
  m_Script: {fileID: 11500000, guid: 956af6ee031a2eb47b9c0ab5dcd50fd7, type: 3}
  m_Name: 
  m_EditorClassIdentifier: 
  updateLinkedTransform: 0
  moveLerpTime: 0.1
  rotateLerpTime: 0.1
  scaleLerpTime: 0
  maintainScaleOnInitialization: 1
  smoothing: 1
  lifetime: 0
  safeZone: 0
  safeZoneBuffer: 0.13
  updateWhenOppositeHandNear: 0
  hideHandCursorsOnActivate: 1
  rotationBehavior: 2
  offsetBehavior: 0
  forwardOffset: 0
  safeZoneAngleOffset: 0
  onHandActivate:
    m_PersistentCalls:
      m_Calls: []
  onHandDeactivate:
    m_PersistentCalls:
      m_Calls: []
  onFirstHandDetected:
    m_PersistentCalls:
      m_Calls:
      - m_Target: {fileID: 2665847549932021734}
        m_TargetAssemblyTypeName: 
        m_MethodName: SetActive
        m_Mode: 6
        m_Arguments:
          m_ObjectArgument: {fileID: 0}
          m_ObjectArgumentAssemblyTypeName: UnityEngine.Object, UnityEngine
          m_IntArgument: 0
          m_FloatArgument: 0
          m_StringArgument: 
          m_BoolArgument: 1
        m_CallState: 2
  onLastHandLost:
    m_PersistentCalls:
      m_Calls:
      - m_Target: {fileID: 2665847549932021734}
        m_TargetAssemblyTypeName: 
        m_MethodName: SetActive
        m_Mode: 6
        m_Arguments:
          m_ObjectArgument: {fileID: 0}
          m_ObjectArgumentAssemblyTypeName: UnityEngine.Object, UnityEngine
          m_IntArgument: 0
          m_FloatArgument: 0
          m_StringArgument: 
          m_BoolArgument: 0
        m_CallState: 2
  facingCameraTrackingThreshold: 75
  requireFlatHand: 0
  flatHandThreshold: 45
  followHandUntilFacingCamera: 1
  followHandCameraFacingThresholdAngle: 50
  useGazeActivation: 1
  eyeGazeProximityThreshold: 0.0125
  headGazeProximityThreshold: 0.03
--- !u!114 &3693999313254176305
MonoBehaviour:
  m_ObjectHideFlags: 0
  m_CorrespondingSourceObject: {fileID: 0}
  m_PrefabInstance: {fileID: 0}
  m_PrefabAsset: {fileID: 0}
  m_GameObject: {fileID: 2665847549521150357}
  m_Enabled: 1
  m_EditorHideFlags: 0
  m_Script: {fileID: 11500000, guid: 45b3eff181cc4244a8a14234096e62fd, type: 3}
  m_Name: 
  m_EditorClassIdentifier: 
  isFocusRequired: 0
  keywords:
  - keyword: Show hand menu
    response:
      m_PersistentCalls:
        m_Calls:
        - m_Target: {fileID: 3693999313254176306}
          m_TargetAssemblyTypeName: 
          m_MethodName: ChangeTrackedTargetTypeHead
          m_Mode: 1
          m_Arguments:
            m_ObjectArgument: {fileID: 0}
            m_ObjectArgumentAssemblyTypeName: UnityEngine.Object, UnityEngine
            m_IntArgument: 0
            m_FloatArgument: 0
            m_StringArgument: 
            m_BoolArgument: 0
          m_CallState: 2
        - m_Target: {fileID: 2665847549521150359}
          m_TargetAssemblyTypeName: 
          m_MethodName: set_enabled
          m_Mode: 6
          m_Arguments:
            m_ObjectArgument: {fileID: 0}
            m_ObjectArgumentAssemblyTypeName: UnityEngine.Object, UnityEngine
            m_IntArgument: 0
            m_FloatArgument: 0
            m_StringArgument: 
            m_BoolArgument: 0
          m_CallState: 2
        - m_Target: {fileID: 3693999313254176308}
          m_TargetAssemblyTypeName: 
          m_MethodName: set_enabled
          m_Mode: 6
          m_Arguments:
            m_ObjectArgument: {fileID: 0}
            m_ObjectArgumentAssemblyTypeName: UnityEngine.Object, UnityEngine
            m_IntArgument: 0
            m_FloatArgument: 0
            m_StringArgument: 
            m_BoolArgument: 1
          m_CallState: 2
        - m_Target: {fileID: 2665847549932021734}
          m_TargetAssemblyTypeName: 
          m_MethodName: SetActive
          m_Mode: 6
          m_Arguments:
            m_ObjectArgument: {fileID: 0}
            m_ObjectArgumentAssemblyTypeName: UnityEngine.Object, UnityEngine
            m_IntArgument: 0
            m_FloatArgument: 0
            m_StringArgument: 
            m_BoolArgument: 1
          m_CallState: 2
  - keyword: Hide hand menu
    response:
      m_PersistentCalls:
        m_Calls:
        - m_Target: {fileID: 2665847549932021734}
          m_TargetAssemblyTypeName: 
          m_MethodName: SetActive
          m_Mode: 6
          m_Arguments:
            m_ObjectArgument: {fileID: 0}
            m_ObjectArgumentAssemblyTypeName: UnityEngine.Object, UnityEngine
            m_IntArgument: 0
            m_FloatArgument: 0
            m_StringArgument: 
            m_BoolArgument: 0
          m_CallState: 2
        - m_Target: {fileID: 3693999313254176306}
          m_TargetAssemblyTypeName: 
          m_MethodName: ChangeTrackedTargetTypeHandJoint
          m_Mode: 1
          m_Arguments:
            m_ObjectArgument: {fileID: 0}
            m_ObjectArgumentAssemblyTypeName: UnityEngine.Object, UnityEngine
            m_IntArgument: 0
            m_FloatArgument: 0
            m_StringArgument: 
            m_BoolArgument: 0
          m_CallState: 2
        - m_Target: {fileID: 3693999313254176308}
          m_TargetAssemblyTypeName: 
          m_MethodName: set_enabled
          m_Mode: 6
          m_Arguments:
            m_ObjectArgument: {fileID: 0}
            m_ObjectArgumentAssemblyTypeName: UnityEngine.Object, UnityEngine
            m_IntArgument: 0
            m_FloatArgument: 0
            m_StringArgument: 
            m_BoolArgument: 0
          m_CallState: 2
        - m_Target: {fileID: 2665847549521150359}
          m_TargetAssemblyTypeName: 
          m_MethodName: set_enabled
          m_Mode: 6
          m_Arguments:
            m_ObjectArgument: {fileID: 0}
            m_ObjectArgumentAssemblyTypeName: UnityEngine.Object, UnityEngine
            m_IntArgument: 0
            m_FloatArgument: 0
            m_StringArgument: 
            m_BoolArgument: 1
          m_CallState: 2
  persistentKeywords: 0
  speechConfirmationTooltipPrefab: {fileID: 8046114618238072051, guid: 271778f6c957b524981067a81d238394,
    type: 3}
--- !u!114 &3693999313254176306
MonoBehaviour:
  m_ObjectHideFlags: 0
  m_CorrespondingSourceObject: {fileID: 0}
  m_PrefabInstance: {fileID: 0}
  m_PrefabAsset: {fileID: 0}
  m_GameObject: {fileID: 2665847549521150357}
  m_Enabled: 1
  m_EditorHideFlags: 0
  m_Script: {fileID: 11500000, guid: 0b31b6fc6b6a28249adae3628ec542ec, type: 3}
  m_Name: 
  m_EditorClassIdentifier: 
  solverHandler: {fileID: 2665847549521150352}
--- !u!114 &3693999313254176308
MonoBehaviour:
  m_ObjectHideFlags: 0
  m_CorrespondingSourceObject: {fileID: 0}
  m_PrefabInstance: {fileID: 0}
  m_PrefabAsset: {fileID: 0}
  m_GameObject: {fileID: 2665847549521150357}
  m_Enabled: 0
  m_EditorHideFlags: 0
  m_Script: {fileID: 11500000, guid: 4479a0bd44d822241a4c5f4890c481c0, type: 3}
  m_Name: 
  m_EditorClassIdentifier: 
  updateLinkedTransform: 0
  moveLerpTime: 0.5
  rotateLerpTime: 0.1
  scaleLerpTime: 0
  maintainScaleOnInitialization: 1
  smoothing: 1
  lifetime: 0
  orientationType: 1
  faceTrackedObjectWhileClamped: 1
  faceUserDefinedTargetTransform: 0
  targetToFace: {fileID: 0}
  pivotAxis: 7
  minDistance: 0.3
  maxDistance: 0.9
  defaultDistance: 0.7
  maxViewHorizontalDegrees: 30
  maxViewVerticalDegrees: 20
  reorientWhenOutsideParameters: 1
  orientToControllerDeadzoneDegrees: 60
  ignoreAngleClamp: 0
  ignoreDistanceClamp: 0
  ignoreReferencePitchAndRoll: 0
  pitchOffset: 0
  verticalMaxDistance: 0
  angularClampMode: 0
  tetherAngleSteps: 6
  boundsScaler: 1
--- !u!1 &2665847549932021734
GameObject:
  m_ObjectHideFlags: 0
  m_CorrespondingSourceObject: {fileID: 0}
  m_PrefabInstance: {fileID: 0}
  m_PrefabAsset: {fileID: 0}
  serializedVersion: 6
  m_Component:
  - component: {fileID: 2665847549932021735}
  m_Layer: 0
  m_Name: MenuContent
  m_TagString: Untagged
  m_Icon: {fileID: 0}
  m_NavMeshLayer: 0
  m_StaticEditorFlags: 0
  m_IsActive: 1
--- !u!4 &2665847549932021735
Transform:
  m_ObjectHideFlags: 0
  m_CorrespondingSourceObject: {fileID: 0}
  m_PrefabInstance: {fileID: 0}
  m_PrefabAsset: {fileID: 0}
  m_GameObject: {fileID: 2665847549932021734}
  m_LocalRotation: {x: -0, y: -0, z: -0, w: 1}
  m_LocalPosition: {x: 0, y: 0, z: 0}
  m_LocalScale: {x: 1, y: 1, z: 1}
  m_Children:
  - {fileID: 2665847548756678544}
  - {fileID: 7075771668847028329}
  m_Father: {fileID: 2665847549521150358}
  m_RootOrder: 0
  m_LocalEulerAnglesHint: {x: 0, y: 0, z: 0}
--- !u!1 &9031548364530466642
GameObject:
  m_ObjectHideFlags: 0
  m_CorrespondingSourceObject: {fileID: 0}
  m_PrefabInstance: {fileID: 0}
  m_PrefabAsset: {fileID: 0}
  serializedVersion: 6
  m_Component:
  - component: {fileID: 7075771668847028329}
  - component: {fileID: 3952178885830326351}
  m_Layer: 0
  m_Name: ButtonCollection
  m_TagString: Untagged
  m_Icon: {fileID: 0}
  m_NavMeshLayer: 0
  m_StaticEditorFlags: 0
  m_IsActive: 1
--- !u!4 &7075771668847028329
Transform:
  m_ObjectHideFlags: 0
  m_CorrespondingSourceObject: {fileID: 0}
  m_PrefabInstance: {fileID: 0}
  m_PrefabAsset: {fileID: 0}
  m_GameObject: {fileID: 9031548364530466642}
  m_LocalRotation: {x: -0, y: -0, z: -0, w: 1}
  m_LocalPosition: {x: 0, y: 0, z: 0}
  m_LocalScale: {x: 1, y: 1, z: 1}
  m_Children:
  - {fileID: 2665847549804687481}
  - {fileID: 2665847549819969115}
  - {fileID: 2665847548180306563}
  - {fileID: 8201116936727355307}
  - {fileID: 3307930099600413265}
  - {fileID: 4831165532730331065}
  m_Father: {fileID: 2665847549932021735}
  m_RootOrder: 1
  m_LocalEulerAnglesHint: {x: 0, y: 0, z: 0}
--- !u!114 &3952178885830326351
MonoBehaviour:
  m_ObjectHideFlags: 0
  m_CorrespondingSourceObject: {fileID: 0}
  m_PrefabInstance: {fileID: 0}
  m_PrefabAsset: {fileID: 0}
  m_GameObject: {fileID: 9031548364530466642}
  m_Enabled: 1
  m_EditorHideFlags: 0
  m_Script: {fileID: 11500000, guid: cf12ee76e7e00a44a9a84256760020e6, type: 3}
  m_Name: 
  m_EditorClassIdentifier: 
  nodeList:
  - Name: PressableButton
    Offset: {x: 0, y: 0}
    Radius: 0
    Transform: {fileID: 2665847549804687481}
    Colliders: []
  - Name: PressableButton (1)
    Offset: {x: 0, y: 0}
    Radius: 0
    Transform: {fileID: 2665847549819969115}
    Colliders: []
  - Name: PressableButton (2)
    Offset: {x: 0, y: 0}
    Radius: 0
    Transform: {fileID: 2665847548180306563}
    Colliders: []
  - Name: PressableButton (3)
    Offset: {x: 0, y: 0}
    Radius: 0
    Transform: {fileID: 8201116936727355307}
    Colliders: []
  - Name: PressableButton (4)
    Offset: {x: 0, y: 0}
    Radius: 0
    Transform: {fileID: 3307930099600413265}
    Colliders: []
  - Name: PressableButton (5)
    Offset: {x: 0, y: 0}
    Radius: 0
    Transform: {fileID: 4831165532730331065}
    Colliders: []
  ignoreInactiveTransforms: 1
  sortType: 0
  surfaceType: 1
  orientType: 0
  layout: 1
  anchor: 4
  anchorAlongAxis: 0
  columnAlignment: 0
  rowAlignment: 0
  radius: 2
  radialRange: 180
  distance: 0
  rows: 3
  columns: 2
  cellWidth: 0.032
  cellHeight: 0.032
  assetVersion: 1
--- !u!1001 &2665847548414904406
PrefabInstance:
  m_ObjectHideFlags: 0
  serializedVersion: 2
  m_Modification:
    m_TransformParent: {fileID: 7075771668847028329}
    m_Modifications:
    - target: {fileID: 316800718, guid: 45fd0ad89d6d17b4fbe68eb48dbe9de9, type: 3}
      propertyPath: m_Name
      value: PressableButton
      objectReference: {fileID: 0}
    - target: {fileID: 937783104, guid: 45fd0ad89d6d17b4fbe68eb48dbe9de9, type: 3}
      propertyPath: m_Mesh
      value: 
      objectReference: {fileID: 0}
    - target: {fileID: 1944713263, guid: 45fd0ad89d6d17b4fbe68eb48dbe9de9, type: 3}
      propertyPath: m_RootOrder
      value: 0
      objectReference: {fileID: 0}
    - target: {fileID: 1944713263, guid: 45fd0ad89d6d17b4fbe68eb48dbe9de9, type: 3}
      propertyPath: m_LocalPosition.x
      value: -0.016
      objectReference: {fileID: 0}
    - target: {fileID: 1944713263, guid: 45fd0ad89d6d17b4fbe68eb48dbe9de9, type: 3}
      propertyPath: m_LocalPosition.y
      value: 0.031999998
      objectReference: {fileID: 0}
    - target: {fileID: 1944713263, guid: 45fd0ad89d6d17b4fbe68eb48dbe9de9, type: 3}
      propertyPath: m_LocalPosition.z
      value: 0
      objectReference: {fileID: 0}
    - target: {fileID: 1944713263, guid: 45fd0ad89d6d17b4fbe68eb48dbe9de9, type: 3}
      propertyPath: m_LocalRotation.w
      value: 1
      objectReference: {fileID: 0}
    - target: {fileID: 1944713263, guid: 45fd0ad89d6d17b4fbe68eb48dbe9de9, type: 3}
      propertyPath: m_LocalRotation.x
      value: -0
      objectReference: {fileID: 0}
    - target: {fileID: 1944713263, guid: 45fd0ad89d6d17b4fbe68eb48dbe9de9, type: 3}
      propertyPath: m_LocalRotation.y
      value: -0
      objectReference: {fileID: 0}
    - target: {fileID: 1944713263, guid: 45fd0ad89d6d17b4fbe68eb48dbe9de9, type: 3}
      propertyPath: m_LocalRotation.z
      value: -0
      objectReference: {fileID: 0}
    - target: {fileID: 1944713263, guid: 45fd0ad89d6d17b4fbe68eb48dbe9de9, type: 3}
      propertyPath: m_LocalEulerAnglesHint.x
      value: 0
      objectReference: {fileID: 0}
    - target: {fileID: 1944713263, guid: 45fd0ad89d6d17b4fbe68eb48dbe9de9, type: 3}
      propertyPath: m_LocalEulerAnglesHint.y
      value: 0
      objectReference: {fileID: 0}
    - target: {fileID: 1944713263, guid: 45fd0ad89d6d17b4fbe68eb48dbe9de9, type: 3}
      propertyPath: m_LocalEulerAnglesHint.z
      value: 0
      objectReference: {fileID: 0}
    - target: {fileID: 329340111926477333, guid: 45fd0ad89d6d17b4fbe68eb48dbe9de9,
        type: 3}
      propertyPath: m_IsActive
      value: 0
      objectReference: {fileID: 0}
    - target: {fileID: 7652376644636595447, guid: 45fd0ad89d6d17b4fbe68eb48dbe9de9,
        type: 3}
      propertyPath: iconQuadTexture
      value: 
      objectReference: {fileID: 2800000, guid: 7de780622ddab5e49b73d5d7a806faf9, type: 3}
    - target: {fileID: 9181818329810857364, guid: 45fd0ad89d6d17b4fbe68eb48dbe9de9,
        type: 3}
      propertyPath: m_textInfo.lineCount
      value: 0
      objectReference: {fileID: 0}
    - target: {fileID: 9181818329810857364, guid: 45fd0ad89d6d17b4fbe68eb48dbe9de9,
        type: 3}
      propertyPath: m_textInfo.pageCount
      value: 0
      objectReference: {fileID: 0}
    - target: {fileID: 9181818329810857364, guid: 45fd0ad89d6d17b4fbe68eb48dbe9de9,
        type: 3}
      propertyPath: m_textInfo.wordCount
      value: 0
      objectReference: {fileID: 0}
    - target: {fileID: 9181818329810857364, guid: 45fd0ad89d6d17b4fbe68eb48dbe9de9,
        type: 3}
      propertyPath: m_textInfo.spaceCount
      value: 0
      objectReference: {fileID: 0}
    - target: {fileID: 9181818329810857364, guid: 45fd0ad89d6d17b4fbe68eb48dbe9de9,
        type: 3}
      propertyPath: m_textInfo.characterCount
      value: 0
      objectReference: {fileID: 0}
    m_RemovedComponents: []
  m_SourcePrefab: {fileID: 100100000, guid: 45fd0ad89d6d17b4fbe68eb48dbe9de9, type: 3}
--- !u!4 &2665847549804687481 stripped
Transform:
  m_CorrespondingSourceObject: {fileID: 1944713263, guid: 45fd0ad89d6d17b4fbe68eb48dbe9de9,
    type: 3}
  m_PrefabInstance: {fileID: 2665847548414904406}
  m_PrefabAsset: {fileID: 0}
--- !u!1001 &2665847548533843572
PrefabInstance:
  m_ObjectHideFlags: 0
  serializedVersion: 2
  m_Modification:
    m_TransformParent: {fileID: 7075771668847028329}
    m_Modifications:
    - target: {fileID: 316800718, guid: 45fd0ad89d6d17b4fbe68eb48dbe9de9, type: 3}
      propertyPath: m_Name
      value: PressableButton (1)
      objectReference: {fileID: 0}
    - target: {fileID: 937783104, guid: 45fd0ad89d6d17b4fbe68eb48dbe9de9, type: 3}
      propertyPath: m_Mesh
      value: 
      objectReference: {fileID: 0}
    - target: {fileID: 1944713263, guid: 45fd0ad89d6d17b4fbe68eb48dbe9de9, type: 3}
      propertyPath: m_RootOrder
      value: 1
      objectReference: {fileID: 0}
    - target: {fileID: 1944713263, guid: 45fd0ad89d6d17b4fbe68eb48dbe9de9, type: 3}
      propertyPath: m_LocalPosition.x
      value: -0.016
      objectReference: {fileID: 0}
    - target: {fileID: 1944713263, guid: 45fd0ad89d6d17b4fbe68eb48dbe9de9, type: 3}
      propertyPath: m_LocalPosition.y
      value: -0.0000000018626451
      objectReference: {fileID: 0}
    - target: {fileID: 1944713263, guid: 45fd0ad89d6d17b4fbe68eb48dbe9de9, type: 3}
      propertyPath: m_LocalPosition.z
      value: 0
      objectReference: {fileID: 0}
    - target: {fileID: 1944713263, guid: 45fd0ad89d6d17b4fbe68eb48dbe9de9, type: 3}
      propertyPath: m_LocalRotation.w
      value: 1
      objectReference: {fileID: 0}
    - target: {fileID: 1944713263, guid: 45fd0ad89d6d17b4fbe68eb48dbe9de9, type: 3}
      propertyPath: m_LocalRotation.x
      value: -0
      objectReference: {fileID: 0}
    - target: {fileID: 1944713263, guid: 45fd0ad89d6d17b4fbe68eb48dbe9de9, type: 3}
      propertyPath: m_LocalRotation.y
      value: -0
      objectReference: {fileID: 0}
    - target: {fileID: 1944713263, guid: 45fd0ad89d6d17b4fbe68eb48dbe9de9, type: 3}
      propertyPath: m_LocalRotation.z
      value: -0
      objectReference: {fileID: 0}
    - target: {fileID: 1944713263, guid: 45fd0ad89d6d17b4fbe68eb48dbe9de9, type: 3}
      propertyPath: m_LocalEulerAnglesHint.x
      value: 0
      objectReference: {fileID: 0}
    - target: {fileID: 1944713263, guid: 45fd0ad89d6d17b4fbe68eb48dbe9de9, type: 3}
      propertyPath: m_LocalEulerAnglesHint.y
      value: 0
      objectReference: {fileID: 0}
    - target: {fileID: 1944713263, guid: 45fd0ad89d6d17b4fbe68eb48dbe9de9, type: 3}
      propertyPath: m_LocalEulerAnglesHint.z
      value: 0
      objectReference: {fileID: 0}
    - target: {fileID: 329340111926477333, guid: 45fd0ad89d6d17b4fbe68eb48dbe9de9,
        type: 3}
      propertyPath: m_IsActive
      value: 0
      objectReference: {fileID: 0}
    - target: {fileID: 7652376644636595447, guid: 45fd0ad89d6d17b4fbe68eb48dbe9de9,
        type: 3}
      propertyPath: iconQuadTexture
      value: 
      objectReference: {fileID: 2800000, guid: 0771cd1b5e4131e45afe250cd1713737, type: 3}
    - target: {fileID: 9181818329810857364, guid: 45fd0ad89d6d17b4fbe68eb48dbe9de9,
        type: 3}
      propertyPath: m_textInfo.lineCount
      value: 0
      objectReference: {fileID: 0}
    - target: {fileID: 9181818329810857364, guid: 45fd0ad89d6d17b4fbe68eb48dbe9de9,
        type: 3}
      propertyPath: m_textInfo.pageCount
      value: 0
      objectReference: {fileID: 0}
    - target: {fileID: 9181818329810857364, guid: 45fd0ad89d6d17b4fbe68eb48dbe9de9,
        type: 3}
      propertyPath: m_textInfo.wordCount
      value: 0
      objectReference: {fileID: 0}
    - target: {fileID: 9181818329810857364, guid: 45fd0ad89d6d17b4fbe68eb48dbe9de9,
        type: 3}
      propertyPath: m_textInfo.spaceCount
      value: 0
      objectReference: {fileID: 0}
    - target: {fileID: 9181818329810857364, guid: 45fd0ad89d6d17b4fbe68eb48dbe9de9,
        type: 3}
      propertyPath: m_textInfo.characterCount
      value: 0
      objectReference: {fileID: 0}
    m_RemovedComponents: []
  m_SourcePrefab: {fileID: 100100000, guid: 45fd0ad89d6d17b4fbe68eb48dbe9de9, type: 3}
--- !u!4 &2665847549819969115 stripped
Transform:
  m_CorrespondingSourceObject: {fileID: 1944713263, guid: 45fd0ad89d6d17b4fbe68eb48dbe9de9,
    type: 3}
  m_PrefabInstance: {fileID: 2665847548533843572}
  m_PrefabAsset: {fileID: 0}
--- !u!1001 &2665847550036927148
PrefabInstance:
  m_ObjectHideFlags: 0
  serializedVersion: 2
  m_Modification:
    m_TransformParent: {fileID: 7075771668847028329}
    m_Modifications:
    - target: {fileID: 316800718, guid: 45fd0ad89d6d17b4fbe68eb48dbe9de9, type: 3}
      propertyPath: m_Name
      value: PressableButton (2)
      objectReference: {fileID: 0}
    - target: {fileID: 937783102, guid: 45fd0ad89d6d17b4fbe68eb48dbe9de9, type: 3}
      propertyPath: m_textInfo.lineCount
      value: 1
      objectReference: {fileID: 0}
    - target: {fileID: 937783102, guid: 45fd0ad89d6d17b4fbe68eb48dbe9de9, type: 3}
      propertyPath: m_textInfo.pageCount
      value: 1
      objectReference: {fileID: 0}
    - target: {fileID: 937783102, guid: 45fd0ad89d6d17b4fbe68eb48dbe9de9, type: 3}
      propertyPath: m_textInfo.wordCount
      value: 1
      objectReference: {fileID: 0}
    - target: {fileID: 937783102, guid: 45fd0ad89d6d17b4fbe68eb48dbe9de9, type: 3}
      propertyPath: m_textInfo.characterCount
      value: 6
      objectReference: {fileID: 0}
    - target: {fileID: 937783104, guid: 45fd0ad89d6d17b4fbe68eb48dbe9de9, type: 3}
      propertyPath: m_Mesh
      value: 
      objectReference: {fileID: 0}
    - target: {fileID: 1944713263, guid: 45fd0ad89d6d17b4fbe68eb48dbe9de9, type: 3}
      propertyPath: m_RootOrder
      value: 2
      objectReference: {fileID: 0}
    - target: {fileID: 1944713263, guid: 45fd0ad89d6d17b4fbe68eb48dbe9de9, type: 3}
      propertyPath: m_LocalPosition.x
      value: -0.016
      objectReference: {fileID: 0}
    - target: {fileID: 1944713263, guid: 45fd0ad89d6d17b4fbe68eb48dbe9de9, type: 3}
      propertyPath: m_LocalPosition.y
      value: -0.032000005
      objectReference: {fileID: 0}
    - target: {fileID: 1944713263, guid: 45fd0ad89d6d17b4fbe68eb48dbe9de9, type: 3}
      propertyPath: m_LocalPosition.z
      value: 0
      objectReference: {fileID: 0}
    - target: {fileID: 1944713263, guid: 45fd0ad89d6d17b4fbe68eb48dbe9de9, type: 3}
      propertyPath: m_LocalRotation.w
      value: 1
      objectReference: {fileID: 0}
    - target: {fileID: 1944713263, guid: 45fd0ad89d6d17b4fbe68eb48dbe9de9, type: 3}
      propertyPath: m_LocalRotation.x
      value: -0
      objectReference: {fileID: 0}
    - target: {fileID: 1944713263, guid: 45fd0ad89d6d17b4fbe68eb48dbe9de9, type: 3}
      propertyPath: m_LocalRotation.y
      value: -0
      objectReference: {fileID: 0}
    - target: {fileID: 1944713263, guid: 45fd0ad89d6d17b4fbe68eb48dbe9de9, type: 3}
      propertyPath: m_LocalRotation.z
      value: -0
      objectReference: {fileID: 0}
    - target: {fileID: 1944713263, guid: 45fd0ad89d6d17b4fbe68eb48dbe9de9, type: 3}
      propertyPath: m_LocalEulerAnglesHint.x
      value: 0
      objectReference: {fileID: 0}
    - target: {fileID: 1944713263, guid: 45fd0ad89d6d17b4fbe68eb48dbe9de9, type: 3}
      propertyPath: m_LocalEulerAnglesHint.y
      value: 0
      objectReference: {fileID: 0}
    - target: {fileID: 1944713263, guid: 45fd0ad89d6d17b4fbe68eb48dbe9de9, type: 3}
      propertyPath: m_LocalEulerAnglesHint.z
      value: 0
      objectReference: {fileID: 0}
    - target: {fileID: 329340111926477333, guid: 45fd0ad89d6d17b4fbe68eb48dbe9de9,
        type: 3}
      propertyPath: m_IsActive
      value: 0
      objectReference: {fileID: 0}
    - target: {fileID: 7652376644636595447, guid: 45fd0ad89d6d17b4fbe68eb48dbe9de9,
        type: 3}
      propertyPath: iconQuadTexture
      value: 
      objectReference: {fileID: 2800000, guid: b5066c514f7f02f4292cf842f3c8b75f, type: 3}
    - target: {fileID: 9181818329810857364, guid: 45fd0ad89d6d17b4fbe68eb48dbe9de9,
        type: 3}
      propertyPath: m_textInfo.lineCount
      value: 0
      objectReference: {fileID: 0}
    - target: {fileID: 9181818329810857364, guid: 45fd0ad89d6d17b4fbe68eb48dbe9de9,
        type: 3}
      propertyPath: m_textInfo.pageCount
      value: 0
      objectReference: {fileID: 0}
    - target: {fileID: 9181818329810857364, guid: 45fd0ad89d6d17b4fbe68eb48dbe9de9,
        type: 3}
      propertyPath: m_textInfo.wordCount
      value: 0
      objectReference: {fileID: 0}
    - target: {fileID: 9181818329810857364, guid: 45fd0ad89d6d17b4fbe68eb48dbe9de9,
        type: 3}
      propertyPath: m_textInfo.spaceCount
      value: 0
      objectReference: {fileID: 0}
    - target: {fileID: 9181818329810857364, guid: 45fd0ad89d6d17b4fbe68eb48dbe9de9,
        type: 3}
      propertyPath: m_textInfo.characterCount
      value: 0
      objectReference: {fileID: 0}
    m_RemovedComponents: []
  m_SourcePrefab: {fileID: 100100000, guid: 45fd0ad89d6d17b4fbe68eb48dbe9de9, type: 3}
--- !u!4 &2665847548180306563 stripped
Transform:
  m_CorrespondingSourceObject: {fileID: 1944713263, guid: 45fd0ad89d6d17b4fbe68eb48dbe9de9,
    type: 3}
  m_PrefabInstance: {fileID: 2665847550036927148}
  m_PrefabAsset: {fileID: 0}
--- !u!1001 &3307930099380693630
PrefabInstance:
  m_ObjectHideFlags: 0
  serializedVersion: 2
  m_Modification:
    m_TransformParent: {fileID: 7075771668847028329}
    m_Modifications:
    - target: {fileID: 316800718, guid: 45fd0ad89d6d17b4fbe68eb48dbe9de9, type: 3}
      propertyPath: m_Name
      value: PressableButton (4)
      objectReference: {fileID: 0}
    - target: {fileID: 937783102, guid: 45fd0ad89d6d17b4fbe68eb48dbe9de9, type: 3}
      propertyPath: m_textInfo.lineCount
      value: 1
      objectReference: {fileID: 0}
    - target: {fileID: 937783102, guid: 45fd0ad89d6d17b4fbe68eb48dbe9de9, type: 3}
      propertyPath: m_textInfo.pageCount
      value: 1
      objectReference: {fileID: 0}
    - target: {fileID: 937783102, guid: 45fd0ad89d6d17b4fbe68eb48dbe9de9, type: 3}
      propertyPath: m_textInfo.wordCount
      value: 1
      objectReference: {fileID: 0}
    - target: {fileID: 937783102, guid: 45fd0ad89d6d17b4fbe68eb48dbe9de9, type: 3}
      propertyPath: m_textInfo.characterCount
      value: 6
      objectReference: {fileID: 0}
    - target: {fileID: 937783104, guid: 45fd0ad89d6d17b4fbe68eb48dbe9de9, type: 3}
      propertyPath: m_Mesh
      value: 
      objectReference: {fileID: 0}
    - target: {fileID: 1944713263, guid: 45fd0ad89d6d17b4fbe68eb48dbe9de9, type: 3}
      propertyPath: m_RootOrder
      value: 4
      objectReference: {fileID: 0}
    - target: {fileID: 1944713263, guid: 45fd0ad89d6d17b4fbe68eb48dbe9de9, type: 3}
      propertyPath: m_LocalPosition.x
      value: 0.016
      objectReference: {fileID: 0}
    - target: {fileID: 1944713263, guid: 45fd0ad89d6d17b4fbe68eb48dbe9de9, type: 3}
      propertyPath: m_LocalPosition.y
      value: -0.0000000018626451
      objectReference: {fileID: 0}
    - target: {fileID: 1944713263, guid: 45fd0ad89d6d17b4fbe68eb48dbe9de9, type: 3}
      propertyPath: m_LocalPosition.z
      value: 0
      objectReference: {fileID: 0}
    - target: {fileID: 1944713263, guid: 45fd0ad89d6d17b4fbe68eb48dbe9de9, type: 3}
      propertyPath: m_LocalRotation.w
      value: 1
      objectReference: {fileID: 0}
    - target: {fileID: 1944713263, guid: 45fd0ad89d6d17b4fbe68eb48dbe9de9, type: 3}
      propertyPath: m_LocalRotation.x
      value: -0
      objectReference: {fileID: 0}
    - target: {fileID: 1944713263, guid: 45fd0ad89d6d17b4fbe68eb48dbe9de9, type: 3}
      propertyPath: m_LocalRotation.y
      value: -0
      objectReference: {fileID: 0}
    - target: {fileID: 1944713263, guid: 45fd0ad89d6d17b4fbe68eb48dbe9de9, type: 3}
      propertyPath: m_LocalRotation.z
      value: -0
      objectReference: {fileID: 0}
    - target: {fileID: 1944713263, guid: 45fd0ad89d6d17b4fbe68eb48dbe9de9, type: 3}
      propertyPath: m_LocalEulerAnglesHint.x
      value: 0
      objectReference: {fileID: 0}
    - target: {fileID: 1944713263, guid: 45fd0ad89d6d17b4fbe68eb48dbe9de9, type: 3}
      propertyPath: m_LocalEulerAnglesHint.y
      value: 0
      objectReference: {fileID: 0}
    - target: {fileID: 1944713263, guid: 45fd0ad89d6d17b4fbe68eb48dbe9de9, type: 3}
      propertyPath: m_LocalEulerAnglesHint.z
      value: 0
      objectReference: {fileID: 0}
    - target: {fileID: 329340111926477333, guid: 45fd0ad89d6d17b4fbe68eb48dbe9de9,
        type: 3}
      propertyPath: m_IsActive
      value: 0
      objectReference: {fileID: 0}
    - target: {fileID: 7652376644636595447, guid: 45fd0ad89d6d17b4fbe68eb48dbe9de9,
        type: 3}
      propertyPath: iconQuadTexture
      value: 
      objectReference: {fileID: 2800000, guid: 937867e9be7912d4a903cd401ee0a959, type: 3}
    - target: {fileID: 9181818329810857364, guid: 45fd0ad89d6d17b4fbe68eb48dbe9de9,
        type: 3}
      propertyPath: m_textInfo.lineCount
      value: 0
      objectReference: {fileID: 0}
    - target: {fileID: 9181818329810857364, guid: 45fd0ad89d6d17b4fbe68eb48dbe9de9,
        type: 3}
      propertyPath: m_textInfo.pageCount
      value: 0
      objectReference: {fileID: 0}
    - target: {fileID: 9181818329810857364, guid: 45fd0ad89d6d17b4fbe68eb48dbe9de9,
        type: 3}
      propertyPath: m_textInfo.wordCount
      value: 0
      objectReference: {fileID: 0}
    - target: {fileID: 9181818329810857364, guid: 45fd0ad89d6d17b4fbe68eb48dbe9de9,
        type: 3}
      propertyPath: m_textInfo.spaceCount
      value: 0
      objectReference: {fileID: 0}
    - target: {fileID: 9181818329810857364, guid: 45fd0ad89d6d17b4fbe68eb48dbe9de9,
        type: 3}
      propertyPath: m_textInfo.characterCount
      value: 0
      objectReference: {fileID: 0}
    m_RemovedComponents: []
  m_SourcePrefab: {fileID: 100100000, guid: 45fd0ad89d6d17b4fbe68eb48dbe9de9, type: 3}
--- !u!4 &3307930099600413265 stripped
Transform:
  m_CorrespondingSourceObject: {fileID: 1944713263, guid: 45fd0ad89d6d17b4fbe68eb48dbe9de9,
    type: 3}
  m_PrefabInstance: {fileID: 3307930099380693630}
  m_PrefabAsset: {fileID: 0}
--- !u!1001 &4831165534087772054
PrefabInstance:
  m_ObjectHideFlags: 0
  serializedVersion: 2
  m_Modification:
    m_TransformParent: {fileID: 7075771668847028329}
    m_Modifications:
    - target: {fileID: 316800718, guid: 45fd0ad89d6d17b4fbe68eb48dbe9de9, type: 3}
      propertyPath: m_Name
      value: PressableButton (5)
      objectReference: {fileID: 0}
    - target: {fileID: 937783102, guid: 45fd0ad89d6d17b4fbe68eb48dbe9de9, type: 3}
      propertyPath: m_textInfo.lineCount
      value: 1
      objectReference: {fileID: 0}
    - target: {fileID: 937783102, guid: 45fd0ad89d6d17b4fbe68eb48dbe9de9, type: 3}
      propertyPath: m_textInfo.pageCount
      value: 1
      objectReference: {fileID: 0}
    - target: {fileID: 937783102, guid: 45fd0ad89d6d17b4fbe68eb48dbe9de9, type: 3}
      propertyPath: m_textInfo.wordCount
      value: 1
      objectReference: {fileID: 0}
    - target: {fileID: 937783102, guid: 45fd0ad89d6d17b4fbe68eb48dbe9de9, type: 3}
      propertyPath: m_textInfo.characterCount
      value: 6
      objectReference: {fileID: 0}
    - target: {fileID: 937783104, guid: 45fd0ad89d6d17b4fbe68eb48dbe9de9, type: 3}
      propertyPath: m_Mesh
      value: 
      objectReference: {fileID: 0}
    - target: {fileID: 1944713263, guid: 45fd0ad89d6d17b4fbe68eb48dbe9de9, type: 3}
      propertyPath: m_RootOrder
      value: 5
      objectReference: {fileID: 0}
    - target: {fileID: 1944713263, guid: 45fd0ad89d6d17b4fbe68eb48dbe9de9, type: 3}
      propertyPath: m_LocalPosition.x
      value: 0.016
      objectReference: {fileID: 0}
    - target: {fileID: 1944713263, guid: 45fd0ad89d6d17b4fbe68eb48dbe9de9, type: 3}
      propertyPath: m_LocalPosition.y
      value: -0.032000005
      objectReference: {fileID: 0}
    - target: {fileID: 1944713263, guid: 45fd0ad89d6d17b4fbe68eb48dbe9de9, type: 3}
      propertyPath: m_LocalPosition.z
      value: 0
      objectReference: {fileID: 0}
    - target: {fileID: 1944713263, guid: 45fd0ad89d6d17b4fbe68eb48dbe9de9, type: 3}
      propertyPath: m_LocalRotation.w
      value: 1
      objectReference: {fileID: 0}
    - target: {fileID: 1944713263, guid: 45fd0ad89d6d17b4fbe68eb48dbe9de9, type: 3}
      propertyPath: m_LocalRotation.x
      value: -0
      objectReference: {fileID: 0}
    - target: {fileID: 1944713263, guid: 45fd0ad89d6d17b4fbe68eb48dbe9de9, type: 3}
      propertyPath: m_LocalRotation.y
      value: -0
      objectReference: {fileID: 0}
    - target: {fileID: 1944713263, guid: 45fd0ad89d6d17b4fbe68eb48dbe9de9, type: 3}
      propertyPath: m_LocalRotation.z
      value: -0
      objectReference: {fileID: 0}
    - target: {fileID: 1944713263, guid: 45fd0ad89d6d17b4fbe68eb48dbe9de9, type: 3}
      propertyPath: m_LocalEulerAnglesHint.x
      value: 0
      objectReference: {fileID: 0}
    - target: {fileID: 1944713263, guid: 45fd0ad89d6d17b4fbe68eb48dbe9de9, type: 3}
      propertyPath: m_LocalEulerAnglesHint.y
      value: 0
      objectReference: {fileID: 0}
    - target: {fileID: 1944713263, guid: 45fd0ad89d6d17b4fbe68eb48dbe9de9, type: 3}
      propertyPath: m_LocalEulerAnglesHint.z
      value: 0
      objectReference: {fileID: 0}
    - target: {fileID: 329340111926477333, guid: 45fd0ad89d6d17b4fbe68eb48dbe9de9,
        type: 3}
      propertyPath: m_IsActive
      value: 0
      objectReference: {fileID: 0}
    - target: {fileID: 7652376644636595447, guid: 45fd0ad89d6d17b4fbe68eb48dbe9de9,
        type: 3}
      propertyPath: iconQuadTexture
      value: 
      objectReference: {fileID: 2800000, guid: ed2f699f32ec17f4cad3423d2c449119, type: 3}
    - target: {fileID: 9181818329810857364, guid: 45fd0ad89d6d17b4fbe68eb48dbe9de9,
        type: 3}
      propertyPath: m_textInfo.lineCount
      value: 0
      objectReference: {fileID: 0}
    - target: {fileID: 9181818329810857364, guid: 45fd0ad89d6d17b4fbe68eb48dbe9de9,
        type: 3}
      propertyPath: m_textInfo.pageCount
      value: 0
      objectReference: {fileID: 0}
    - target: {fileID: 9181818329810857364, guid: 45fd0ad89d6d17b4fbe68eb48dbe9de9,
        type: 3}
      propertyPath: m_textInfo.wordCount
      value: 0
      objectReference: {fileID: 0}
    - target: {fileID: 9181818329810857364, guid: 45fd0ad89d6d17b4fbe68eb48dbe9de9,
        type: 3}
      propertyPath: m_textInfo.spaceCount
      value: 0
      objectReference: {fileID: 0}
    - target: {fileID: 9181818329810857364, guid: 45fd0ad89d6d17b4fbe68eb48dbe9de9,
        type: 3}
      propertyPath: m_textInfo.characterCount
      value: 0
      objectReference: {fileID: 0}
    m_RemovedComponents: []
  m_SourcePrefab: {fileID: 100100000, guid: 45fd0ad89d6d17b4fbe68eb48dbe9de9, type: 3}
--- !u!4 &4831165532730331065 stripped
Transform:
  m_CorrespondingSourceObject: {fileID: 1944713263, guid: 45fd0ad89d6d17b4fbe68eb48dbe9de9,
    type: 3}
  m_PrefabInstance: {fileID: 4831165534087772054}
  m_PrefabAsset: {fileID: 0}
--- !u!1001 &8201116938571294596
PrefabInstance:
  m_ObjectHideFlags: 0
  serializedVersion: 2
  m_Modification:
    m_TransformParent: {fileID: 7075771668847028329}
    m_Modifications:
    - target: {fileID: 316800718, guid: 45fd0ad89d6d17b4fbe68eb48dbe9de9, type: 3}
      propertyPath: m_Name
      value: PressableButton (3)
      objectReference: {fileID: 0}
    - target: {fileID: 937783102, guid: 45fd0ad89d6d17b4fbe68eb48dbe9de9, type: 3}
      propertyPath: m_textInfo.lineCount
      value: 1
      objectReference: {fileID: 0}
    - target: {fileID: 937783102, guid: 45fd0ad89d6d17b4fbe68eb48dbe9de9, type: 3}
      propertyPath: m_textInfo.pageCount
      value: 1
      objectReference: {fileID: 0}
    - target: {fileID: 937783102, guid: 45fd0ad89d6d17b4fbe68eb48dbe9de9, type: 3}
      propertyPath: m_textInfo.wordCount
      value: 1
      objectReference: {fileID: 0}
    - target: {fileID: 937783102, guid: 45fd0ad89d6d17b4fbe68eb48dbe9de9, type: 3}
      propertyPath: m_textInfo.characterCount
      value: 6
      objectReference: {fileID: 0}
    - target: {fileID: 937783104, guid: 45fd0ad89d6d17b4fbe68eb48dbe9de9, type: 3}
      propertyPath: m_Mesh
      value: 
      objectReference: {fileID: 0}
    - target: {fileID: 1944713263, guid: 45fd0ad89d6d17b4fbe68eb48dbe9de9, type: 3}
      propertyPath: m_RootOrder
      value: 3
      objectReference: {fileID: 0}
    - target: {fileID: 1944713263, guid: 45fd0ad89d6d17b4fbe68eb48dbe9de9, type: 3}
      propertyPath: m_LocalPosition.x
      value: 0.016
      objectReference: {fileID: 0}
    - target: {fileID: 1944713263, guid: 45fd0ad89d6d17b4fbe68eb48dbe9de9, type: 3}
      propertyPath: m_LocalPosition.y
      value: 0.031999998
      objectReference: {fileID: 0}
    - target: {fileID: 1944713263, guid: 45fd0ad89d6d17b4fbe68eb48dbe9de9, type: 3}
      propertyPath: m_LocalPosition.z
      value: 0
      objectReference: {fileID: 0}
    - target: {fileID: 1944713263, guid: 45fd0ad89d6d17b4fbe68eb48dbe9de9, type: 3}
      propertyPath: m_LocalRotation.w
      value: 1
      objectReference: {fileID: 0}
    - target: {fileID: 1944713263, guid: 45fd0ad89d6d17b4fbe68eb48dbe9de9, type: 3}
      propertyPath: m_LocalRotation.x
      value: -0
      objectReference: {fileID: 0}
    - target: {fileID: 1944713263, guid: 45fd0ad89d6d17b4fbe68eb48dbe9de9, type: 3}
      propertyPath: m_LocalRotation.y
      value: -0
      objectReference: {fileID: 0}
    - target: {fileID: 1944713263, guid: 45fd0ad89d6d17b4fbe68eb48dbe9de9, type: 3}
      propertyPath: m_LocalRotation.z
      value: -0
      objectReference: {fileID: 0}
    - target: {fileID: 1944713263, guid: 45fd0ad89d6d17b4fbe68eb48dbe9de9, type: 3}
      propertyPath: m_LocalEulerAnglesHint.x
      value: 0
      objectReference: {fileID: 0}
    - target: {fileID: 1944713263, guid: 45fd0ad89d6d17b4fbe68eb48dbe9de9, type: 3}
      propertyPath: m_LocalEulerAnglesHint.y
      value: 0
      objectReference: {fileID: 0}
    - target: {fileID: 1944713263, guid: 45fd0ad89d6d17b4fbe68eb48dbe9de9, type: 3}
      propertyPath: m_LocalEulerAnglesHint.z
      value: 0
      objectReference: {fileID: 0}
    - target: {fileID: 329340111926477333, guid: 45fd0ad89d6d17b4fbe68eb48dbe9de9,
        type: 3}
      propertyPath: m_IsActive
      value: 0
      objectReference: {fileID: 0}
    - target: {fileID: 7652376644636595447, guid: 45fd0ad89d6d17b4fbe68eb48dbe9de9,
        type: 3}
      propertyPath: iconQuadTexture
      value: 
      objectReference: {fileID: 2800000, guid: 0bee624b4074e5445929e56287795085, type: 3}
    - target: {fileID: 9181818329810857364, guid: 45fd0ad89d6d17b4fbe68eb48dbe9de9,
        type: 3}
      propertyPath: m_textInfo.lineCount
      value: 0
      objectReference: {fileID: 0}
    - target: {fileID: 9181818329810857364, guid: 45fd0ad89d6d17b4fbe68eb48dbe9de9,
        type: 3}
      propertyPath: m_textInfo.pageCount
      value: 0
      objectReference: {fileID: 0}
    - target: {fileID: 9181818329810857364, guid: 45fd0ad89d6d17b4fbe68eb48dbe9de9,
        type: 3}
      propertyPath: m_textInfo.wordCount
      value: 0
      objectReference: {fileID: 0}
    - target: {fileID: 9181818329810857364, guid: 45fd0ad89d6d17b4fbe68eb48dbe9de9,
        type: 3}
      propertyPath: m_textInfo.spaceCount
      value: 0
      objectReference: {fileID: 0}
    - target: {fileID: 9181818329810857364, guid: 45fd0ad89d6d17b4fbe68eb48dbe9de9,
        type: 3}
      propertyPath: m_textInfo.characterCount
      value: 0
      objectReference: {fileID: 0}
    m_RemovedComponents: []
  m_SourcePrefab: {fileID: 100100000, guid: 45fd0ad89d6d17b4fbe68eb48dbe9de9, type: 3}
--- !u!4 &8201116936727355307 stripped
Transform:
  m_CorrespondingSourceObject: {fileID: 1944713263, guid: 45fd0ad89d6d17b4fbe68eb48dbe9de9,
    type: 3}
  m_PrefabInstance: {fileID: 8201116938571294596}
  m_PrefabAsset: {fileID: 0}
