%YAML 1.1
%TAG !u! tag:unity3d.com,2011:
--- !u!1 &2014175836473893122
GameObject:
  m_ObjectHideFlags: 0
  m_CorrespondingSourceObject: {fileID: 0}
  m_PrefabInstance: {fileID: 0}
  m_PrefabAsset: {fileID: 0}
  serializedVersion: 6
  m_Component:
  - component: {fileID: 4187654251277012703}
  - component: {fileID: 4368828526413463362}
  - component: {fileID: 537805699084123880}
  m_Layer: 0
  m_Name: GrabVisualCueHorizontalTop (2)
  m_TagString: Untagged
  m_Icon: {fileID: 0}
  m_NavMeshLayer: 0
  m_StaticEditorFlags: 0
  m_IsActive: 1
--- !u!4 &4187654251277012703
Transform:
  m_ObjectHideFlags: 0
  m_CorrespondingSourceObject: {fileID: 0}
  m_PrefabInstance: {fileID: 0}
  m_PrefabAsset: {fileID: 0}
  m_GameObject: {fileID: 2014175836473893122}
  m_LocalRotation: {x: 0, y: 0, z: 0.7071068, w: 0.7071068}
  m_LocalPosition: {x: 0.0745, y: -0.0202, z: -0.001}
  m_LocalScale: {x: 0.074928366, y: 0.003631132, z: 0.009433999}
  m_Children: []
  m_Father: {fileID: 3432580279223920010}
  m_RootOrder: 5
  m_LocalEulerAnglesHint: {x: 0, y: 0, z: 90}
--- !u!33 &4368828526413463362
MeshFilter:
  m_ObjectHideFlags: 0
  m_CorrespondingSourceObject: {fileID: 0}
  m_PrefabInstance: {fileID: 0}
  m_PrefabAsset: {fileID: 0}
  m_GameObject: {fileID: 2014175836473893122}
  m_Mesh: {fileID: 10210, guid: 0000000000000000e000000000000000, type: 0}
--- !u!23 &537805699084123880
MeshRenderer:
  m_ObjectHideFlags: 0
  m_CorrespondingSourceObject: {fileID: 0}
  m_PrefabInstance: {fileID: 0}
  m_PrefabAsset: {fileID: 0}
  m_GameObject: {fileID: 2014175836473893122}
  m_Enabled: 1
  m_CastShadows: 0
  m_ReceiveShadows: 0
  m_DynamicOccludee: 1
  m_MotionVectors: 2
  m_LightProbeUsage: 0
  m_ReflectionProbeUsage: 0
  m_RayTracingMode: 2
  m_RayTraceProcedural: 0
  m_RenderingLayerMask: 1
  m_RendererPriority: 0
  m_Materials:
  - {fileID: 2100000, guid: 13a6bafb89ca6414895d965b2fdb2041, type: 2}
  m_StaticBatchInfo:
    firstSubMesh: 0
    subMeshCount: 0
  m_StaticBatchRoot: {fileID: 0}
  m_ProbeAnchor: {fileID: 0}
  m_LightProbeVolumeOverride: {fileID: 0}
  m_ScaleInLightmap: 1
  m_ReceiveGI: 1
  m_PreserveUVs: 0
  m_IgnoreNormalsForChartDetection: 0
  m_ImportantGI: 0
  m_StitchLightmapSeams: 0
  m_SelectedEditorRenderState: 3
  m_MinimumChartSize: 4
  m_AutoUVMaxDistance: 0.5
  m_AutoUVMaxAngle: 89
  m_LightmapParameters: {fileID: 0}
  m_SortingLayerID: 0
  m_SortingLayer: 0
  m_SortingOrder: 0
  m_AdditionalVertexStreams: {fileID: 0}
--- !u!1 &5041026673607867330
GameObject:
  m_ObjectHideFlags: 0
  m_CorrespondingSourceObject: {fileID: 0}
  m_PrefabInstance: {fileID: 0}
  m_PrefabAsset: {fileID: 0}
  serializedVersion: 6
  m_Component:
  - component: {fileID: 6535572241115846799}
  - component: {fileID: 7214590449798827232}
  - component: {fileID: 7096623161688875146}
  m_Layer: 0
  m_Name: GrabVisualCueHorizontalTop (1)
  m_TagString: Untagged
  m_Icon: {fileID: 0}
  m_NavMeshLayer: 0
  m_StaticEditorFlags: 0
  m_IsActive: 1
--- !u!4 &6535572241115846799
Transform:
  m_ObjectHideFlags: 0
  m_CorrespondingSourceObject: {fileID: 0}
  m_PrefabInstance: {fileID: 0}
  m_PrefabAsset: {fileID: 0}
  m_GameObject: {fileID: 5041026673607867330}
  m_LocalRotation: {x: 0, y: 0, z: 0.7071068, w: 0.7071068}
  m_LocalPosition: {x: -0.037, y: -0.0202, z: -0.001}
  m_LocalScale: {x: 0.074928366, y: 0.003631132, z: 0.009433999}
  m_Children: []
  m_Father: {fileID: 3432580279223920010}
  m_RootOrder: 4
  m_LocalEulerAnglesHint: {x: 0, y: 0, z: 90}
--- !u!33 &7214590449798827232
MeshFilter:
  m_ObjectHideFlags: 0
  m_CorrespondingSourceObject: {fileID: 0}
  m_PrefabInstance: {fileID: 0}
  m_PrefabAsset: {fileID: 0}
  m_GameObject: {fileID: 5041026673607867330}
  m_Mesh: {fileID: 10210, guid: 0000000000000000e000000000000000, type: 0}
--- !u!23 &7096623161688875146
MeshRenderer:
  m_ObjectHideFlags: 0
  m_CorrespondingSourceObject: {fileID: 0}
  m_PrefabInstance: {fileID: 0}
  m_PrefabAsset: {fileID: 0}
  m_GameObject: {fileID: 5041026673607867330}
  m_Enabled: 1
  m_CastShadows: 0
  m_ReceiveShadows: 0
  m_DynamicOccludee: 1
  m_MotionVectors: 2
  m_LightProbeUsage: 0
  m_ReflectionProbeUsage: 0
  m_RayTracingMode: 2
  m_RayTraceProcedural: 0
  m_RenderingLayerMask: 1
  m_RendererPriority: 0
  m_Materials:
  - {fileID: 2100000, guid: 13a6bafb89ca6414895d965b2fdb2041, type: 2}
  m_StaticBatchInfo:
    firstSubMesh: 0
    subMeshCount: 0
  m_StaticBatchRoot: {fileID: 0}
  m_ProbeAnchor: {fileID: 0}
  m_LightProbeVolumeOverride: {fileID: 0}
  m_ScaleInLightmap: 1
  m_ReceiveGI: 1
  m_PreserveUVs: 0
  m_IgnoreNormalsForChartDetection: 0
  m_ImportantGI: 0
  m_StitchLightmapSeams: 0
  m_SelectedEditorRenderState: 3
  m_MinimumChartSize: 4
  m_AutoUVMaxDistance: 0.5
  m_AutoUVMaxAngle: 89
  m_LightmapParameters: {fileID: 0}
  m_SortingLayerID: 0
  m_SortingLayer: 0
  m_SortingOrder: 0
  m_AdditionalVertexStreams: {fileID: 0}
--- !u!1001 &3172113211659197008
PrefabInstance:
  m_ObjectHideFlags: 0
  serializedVersion: 2
  m_Modification:
    m_TransformParent: {fileID: 0}
    m_Modifications:
    - target: {fileID: 131490875475075100, guid: 6dfc5f0a5fe04f94ab15177720f4bf05,
        type: 3}
      propertyPath: m_LocalPosition.x
      value: -0.031999998
      objectReference: {fileID: 0}
    - target: {fileID: 131490875475075100, guid: 6dfc5f0a5fe04f94ab15177720f4bf05,
        type: 3}
      propertyPath: m_LocalPosition.y
      value: -0.032000005
      objectReference: {fileID: 0}
    - target: {fileID: 131490875995694845, guid: 6dfc5f0a5fe04f94ab15177720f4bf05,
        type: 3}
      propertyPath: m_Name
      value: ButtonSeven
      objectReference: {fileID: 0}
    - target: {fileID: 131490876616161037, guid: 6dfc5f0a5fe04f94ab15177720f4bf05,
        type: 3}
      propertyPath: m_text
      value: Menu Seven
      objectReference: {fileID: 0}
    - target: {fileID: 131490876616161037, guid: 6dfc5f0a5fe04f94ab15177720f4bf05,
        type: 3}
      propertyPath: m_textInfo.lineCount
      value: 0
      objectReference: {fileID: 0}
    - target: {fileID: 131490876616161037, guid: 6dfc5f0a5fe04f94ab15177720f4bf05,
        type: 3}
      propertyPath: m_textInfo.pageCount
      value: 0
      objectReference: {fileID: 0}
    - target: {fileID: 131490876616161037, guid: 6dfc5f0a5fe04f94ab15177720f4bf05,
        type: 3}
      propertyPath: m_textInfo.wordCount
      value: 0
      objectReference: {fileID: 0}
    - target: {fileID: 131490876616161037, guid: 6dfc5f0a5fe04f94ab15177720f4bf05,
        type: 3}
      propertyPath: m_textInfo.spaceCount
      value: 0
      objectReference: {fileID: 0}
    - target: {fileID: 131490876616161037, guid: 6dfc5f0a5fe04f94ab15177720f4bf05,
        type: 3}
      propertyPath: m_havePropertiesChanged
      value: 0
      objectReference: {fileID: 0}
    - target: {fileID: 131490876616161037, guid: 6dfc5f0a5fe04f94ab15177720f4bf05,
        type: 3}
      propertyPath: m_isInputParsingRequired
      value: 0
      objectReference: {fileID: 0}
    - target: {fileID: 131490876616161037, guid: 6dfc5f0a5fe04f94ab15177720f4bf05,
        type: 3}
      propertyPath: m_textInfo.characterCount
      value: 0
      objectReference: {fileID: 0}
    - target: {fileID: 131490876616161139, guid: 6dfc5f0a5fe04f94ab15177720f4bf05,
        type: 3}
      propertyPath: m_Mesh
      value: 
      objectReference: {fileID: 0}
    - target: {fileID: 381806469407776481, guid: 6dfc5f0a5fe04f94ab15177720f4bf05,
        type: 3}
      propertyPath: m_LocalPosition.x
      value: 0.019
      objectReference: {fileID: 0}
    - target: {fileID: 381806469407776481, guid: 6dfc5f0a5fe04f94ab15177720f4bf05,
        type: 3}
      propertyPath: m_LocalPosition.y
      value: -0.0196
      objectReference: {fileID: 0}
    - target: {fileID: 531911681204149366, guid: 6dfc5f0a5fe04f94ab15177720f4bf05,
        type: 3}
      propertyPath: m_LocalPosition.x
      value: 0.019199997
      objectReference: {fileID: 0}
    - target: {fileID: 569958636886365182, guid: 6dfc5f0a5fe04f94ab15177720f4bf05,
        type: 3}
      propertyPath: iconQuadTexture
      value: 
      objectReference: {fileID: 2800000, guid: 49a59150fd8a7c1438828c262032e023, type: 3}
    - target: {fileID: 831844951614958985, guid: 6dfc5f0a5fe04f94ab15177720f4bf05,
        type: 3}
      propertyPath: m_LocalPosition.x
      value: 0.0995
      objectReference: {fileID: 0}
    - target: {fileID: 958555039328662094, guid: 6dfc5f0a5fe04f94ab15177720f4bf05,
        type: 3}
      propertyPath: iconQuadTexture
      value: 
      objectReference: {fileID: 2800000, guid: 4494cfaf424cdde49895b91e2b559258, type: 3}
    - target: {fileID: 1236209809734304333, guid: 6dfc5f0a5fe04f94ab15177720f4bf05,
        type: 3}
      propertyPath: m_IsActive
      value: 0
      objectReference: {fileID: 0}
    - target: {fileID: 1333129552543361702, guid: 6dfc5f0a5fe04f94ab15177720f4bf05,
        type: 3}
      propertyPath: m_Name
      value: NearMenu3x3
      objectReference: {fileID: 0}
    - target: {fileID: 1630636060837078200, guid: 6dfc5f0a5fe04f94ab15177720f4bf05,
        type: 3}
      propertyPath: m_Name
      value: ButtonThree
      objectReference: {fileID: 0}
    - target: {fileID: 1630636061323851062, guid: 6dfc5f0a5fe04f94ab15177720f4bf05,
        type: 3}
      propertyPath: m_Mesh
      value: 
      objectReference: {fileID: 0}
    - target: {fileID: 1630636061323851080, guid: 6dfc5f0a5fe04f94ab15177720f4bf05,
        type: 3}
      propertyPath: m_text
      value: Menu Three
      objectReference: {fileID: 0}
    - target: {fileID: 1630636061323851080, guid: 6dfc5f0a5fe04f94ab15177720f4bf05,
        type: 3}
      propertyPath: m_textInfo.lineCount
      value: 0
      objectReference: {fileID: 0}
    - target: {fileID: 1630636061323851080, guid: 6dfc5f0a5fe04f94ab15177720f4bf05,
        type: 3}
      propertyPath: m_textInfo.pageCount
      value: 0
      objectReference: {fileID: 0}
    - target: {fileID: 1630636061323851080, guid: 6dfc5f0a5fe04f94ab15177720f4bf05,
        type: 3}
      propertyPath: m_textInfo.wordCount
      value: 0
      objectReference: {fileID: 0}
    - target: {fileID: 1630636061323851080, guid: 6dfc5f0a5fe04f94ab15177720f4bf05,
        type: 3}
      propertyPath: m_textInfo.spaceCount
      value: 0
      objectReference: {fileID: 0}
    - target: {fileID: 1630636061323851080, guid: 6dfc5f0a5fe04f94ab15177720f4bf05,
        type: 3}
      propertyPath: m_textInfo.characterCount
      value: 0
      objectReference: {fileID: 0}
    - target: {fileID: 1630636062464991833, guid: 6dfc5f0a5fe04f94ab15177720f4bf05,
        type: 3}
      propertyPath: m_LocalPosition.x
      value: 0.032000005
      objectReference: {fileID: 0}
    - target: {fileID: 1630636062464991833, guid: 6dfc5f0a5fe04f94ab15177720f4bf05,
        type: 3}
      propertyPath: m_LocalPosition.y
      value: 0.031999998
      objectReference: {fileID: 0}
    - target: {fileID: 1781641201505502866, guid: 6dfc5f0a5fe04f94ab15177720f4bf05,
        type: 3}
      propertyPath: m_LocalPosition.y
      value: -0.01243
      objectReference: {fileID: 0}
    - target: {fileID: 1916916465131294397, guid: 6dfc5f0a5fe04f94ab15177720f4bf05,
        type: 3}
      propertyPath: iconQuadTexture
      value: 
      objectReference: {fileID: 2800000, guid: 7de780622ddab5e49b73d5d7a806faf9, type: 3}
    - target: {fileID: 2058207710863321824, guid: 6dfc5f0a5fe04f94ab15177720f4bf05,
        type: 3}
      propertyPath: m_LocalPosition.x
      value: 0.0192
      objectReference: {fileID: 0}
    - target: {fileID: 2058207710863321824, guid: 6dfc5f0a5fe04f94ab15177720f4bf05,
        type: 3}
      propertyPath: m_LocalPosition.y
      value: -0.0745
      objectReference: {fileID: 0}
    - target: {fileID: 2313261133033253179, guid: 6dfc5f0a5fe04f94ab15177720f4bf05,
        type: 3}
      propertyPath: m_RootOrder
      value: 0
      objectReference: {fileID: 0}
    - target: {fileID: 2313261133033253179, guid: 6dfc5f0a5fe04f94ab15177720f4bf05,
        type: 3}
      propertyPath: m_LocalPosition.x
      value: 0
      objectReference: {fileID: 0}
    - target: {fileID: 2313261133033253179, guid: 6dfc5f0a5fe04f94ab15177720f4bf05,
        type: 3}
      propertyPath: m_LocalPosition.y
      value: 0
      objectReference: {fileID: 0}
    - target: {fileID: 2313261133033253179, guid: 6dfc5f0a5fe04f94ab15177720f4bf05,
        type: 3}
      propertyPath: m_LocalPosition.z
      value: 0
      objectReference: {fileID: 0}
    - target: {fileID: 2313261133033253179, guid: 6dfc5f0a5fe04f94ab15177720f4bf05,
        type: 3}
      propertyPath: m_LocalRotation.w
      value: 1
      objectReference: {fileID: 0}
    - target: {fileID: 2313261133033253179, guid: 6dfc5f0a5fe04f94ab15177720f4bf05,
        type: 3}
      propertyPath: m_LocalRotation.x
      value: -0
      objectReference: {fileID: 0}
    - target: {fileID: 2313261133033253179, guid: 6dfc5f0a5fe04f94ab15177720f4bf05,
        type: 3}
      propertyPath: m_LocalRotation.y
      value: -0
      objectReference: {fileID: 0}
    - target: {fileID: 2313261133033253179, guid: 6dfc5f0a5fe04f94ab15177720f4bf05,
        type: 3}
      propertyPath: m_LocalRotation.z
      value: -0
      objectReference: {fileID: 0}
    - target: {fileID: 2313261133033253179, guid: 6dfc5f0a5fe04f94ab15177720f4bf05,
        type: 3}
      propertyPath: m_LocalEulerAnglesHint.x
      value: 0
      objectReference: {fileID: 0}
    - target: {fileID: 2313261133033253179, guid: 6dfc5f0a5fe04f94ab15177720f4bf05,
        type: 3}
      propertyPath: m_LocalEulerAnglesHint.y
      value: 0
      objectReference: {fileID: 0}
    - target: {fileID: 2313261133033253179, guid: 6dfc5f0a5fe04f94ab15177720f4bf05,
        type: 3}
      propertyPath: m_LocalEulerAnglesHint.z
      value: 0
      objectReference: {fileID: 0}
    - target: {fileID: 2654318398115963879, guid: 6dfc5f0a5fe04f94ab15177720f4bf05,
        type: 3}
      propertyPath: iconQuadTexture
      value: 
      objectReference: {fileID: 2800000, guid: ed2f699f32ec17f4cad3423d2c449119, type: 3}
    - target: {fileID: 3015033264147626850, guid: 6dfc5f0a5fe04f94ab15177720f4bf05,
        type: 3}
      propertyPath: m_LocalPosition.x
      value: 0.0000000018626451
      objectReference: {fileID: 0}
    - target: {fileID: 3015033264147626850, guid: 6dfc5f0a5fe04f94ab15177720f4bf05,
        type: 3}
      propertyPath: m_LocalPosition.y
      value: -0.0000000018626451
      objectReference: {fileID: 0}
    - target: {fileID: 3015033265155075085, guid: 6dfc5f0a5fe04f94ab15177720f4bf05,
        type: 3}
      propertyPath: m_Mesh
      value: 
      objectReference: {fileID: 0}
    - target: {fileID: 3015033265155075187, guid: 6dfc5f0a5fe04f94ab15177720f4bf05,
        type: 3}
      propertyPath: m_text
      value: Menu Five
      objectReference: {fileID: 0}
    - target: {fileID: 3015033265155075187, guid: 6dfc5f0a5fe04f94ab15177720f4bf05,
        type: 3}
      propertyPath: m_textInfo.lineCount
      value: 0
      objectReference: {fileID: 0}
    - target: {fileID: 3015033265155075187, guid: 6dfc5f0a5fe04f94ab15177720f4bf05,
        type: 3}
      propertyPath: m_textInfo.pageCount
      value: 0
      objectReference: {fileID: 0}
    - target: {fileID: 3015033265155075187, guid: 6dfc5f0a5fe04f94ab15177720f4bf05,
        type: 3}
      propertyPath: m_textInfo.wordCount
      value: 0
      objectReference: {fileID: 0}
    - target: {fileID: 3015033265155075187, guid: 6dfc5f0a5fe04f94ab15177720f4bf05,
        type: 3}
      propertyPath: m_textInfo.spaceCount
      value: 0
      objectReference: {fileID: 0}
    - target: {fileID: 3015033265155075187, guid: 6dfc5f0a5fe04f94ab15177720f4bf05,
        type: 3}
      propertyPath: m_havePropertiesChanged
      value: 0
      objectReference: {fileID: 0}
    - target: {fileID: 3015033265155075187, guid: 6dfc5f0a5fe04f94ab15177720f4bf05,
        type: 3}
      propertyPath: m_isInputParsingRequired
      value: 0
      objectReference: {fileID: 0}
    - target: {fileID: 3015033265155075187, guid: 6dfc5f0a5fe04f94ab15177720f4bf05,
        type: 3}
      propertyPath: m_textInfo.characterCount
      value: 0
      objectReference: {fileID: 0}
    - target: {fileID: 3015033265741987203, guid: 6dfc5f0a5fe04f94ab15177720f4bf05,
        type: 3}
      propertyPath: m_Name
      value: ButtonFive
      objectReference: {fileID: 0}
    - target: {fileID: 3033285473209203161, guid: 6dfc5f0a5fe04f94ab15177720f4bf05,
        type: 3}
      propertyPath: m_LocalPosition.x
      value: 0.05
      objectReference: {fileID: 0}
    - target: {fileID: 3033285473209203161, guid: 6dfc5f0a5fe04f94ab15177720f4bf05,
        type: 3}
      propertyPath: m_LocalPosition.y
      value: -0.012429999
      objectReference: {fileID: 0}
    - target: {fileID: 3741428002213068870, guid: 6dfc5f0a5fe04f94ab15177720f4bf05,
        type: 3}
      propertyPath: iconQuadTexture
      value: 
      objectReference: {fileID: 2800000, guid: 937867e9be7912d4a903cd401ee0a959, type: 3}
    - target: {fileID: 3896337419547188363, guid: 6dfc5f0a5fe04f94ab15177720f4bf05,
        type: 3}
      propertyPath: rows
      value: 3
      objectReference: {fileID: 0}
    - target: {fileID: 4892378986071971770, guid: 6dfc5f0a5fe04f94ab15177720f4bf05,
        type: 3}
      propertyPath: iconQuadTexture
      value: 
      objectReference: {fileID: 2800000, guid: 559e1da0e65611c4f93ec931e1e6a8a2, type: 3}
    - target: {fileID: 5638812189093552992, guid: 6dfc5f0a5fe04f94ab15177720f4bf05,
        type: 3}
      propertyPath: m_LocalPosition.x
      value: 0.0192
      objectReference: {fileID: 0}
    - target: {fileID: 5638812189093552992, guid: 6dfc5f0a5fe04f94ab15177720f4bf05,
        type: 3}
      propertyPath: m_LocalPosition.y
      value: -0.074
      objectReference: {fileID: 0}
    - target: {fileID: 5684875915651602478, guid: 6dfc5f0a5fe04f94ab15177720f4bf05,
        type: 3}
      propertyPath: m_text
      value: Menu Eight
      objectReference: {fileID: 0}
    - target: {fileID: 5684875915651602478, guid: 6dfc5f0a5fe04f94ab15177720f4bf05,
        type: 3}
      propertyPath: m_textInfo.lineCount
      value: 0
      objectReference: {fileID: 0}
    - target: {fileID: 5684875915651602478, guid: 6dfc5f0a5fe04f94ab15177720f4bf05,
        type: 3}
      propertyPath: m_textInfo.pageCount
      value: 0
      objectReference: {fileID: 0}
    - target: {fileID: 5684875915651602478, guid: 6dfc5f0a5fe04f94ab15177720f4bf05,
        type: 3}
      propertyPath: m_textInfo.wordCount
      value: 0
      objectReference: {fileID: 0}
    - target: {fileID: 5684875915651602478, guid: 6dfc5f0a5fe04f94ab15177720f4bf05,
        type: 3}
      propertyPath: m_textInfo.spaceCount
      value: 0
      objectReference: {fileID: 0}
    - target: {fileID: 5684875915651602478, guid: 6dfc5f0a5fe04f94ab15177720f4bf05,
        type: 3}
      propertyPath: m_havePropertiesChanged
      value: 0
      objectReference: {fileID: 0}
    - target: {fileID: 5684875915651602478, guid: 6dfc5f0a5fe04f94ab15177720f4bf05,
        type: 3}
      propertyPath: m_isInputParsingRequired
      value: 0
      objectReference: {fileID: 0}
    - target: {fileID: 5684875915651602478, guid: 6dfc5f0a5fe04f94ab15177720f4bf05,
        type: 3}
      propertyPath: m_textInfo.characterCount
      value: 0
      objectReference: {fileID: 0}
    - target: {fileID: 5684875915651602512, guid: 6dfc5f0a5fe04f94ab15177720f4bf05,
        type: 3}
      propertyPath: m_Mesh
      value: 
      objectReference: {fileID: 0}
    - target: {fileID: 5684875916272126430, guid: 6dfc5f0a5fe04f94ab15177720f4bf05,
        type: 3}
      propertyPath: m_Name
      value: ButtonEight
      objectReference: {fileID: 0}
    - target: {fileID: 5684875916792745791, guid: 6dfc5f0a5fe04f94ab15177720f4bf05,
        type: 3}
      propertyPath: m_LocalPosition.x
      value: 0.0000000018626451
      objectReference: {fileID: 0}
    - target: {fileID: 5684875916792745791, guid: 6dfc5f0a5fe04f94ab15177720f4bf05,
        type: 3}
      propertyPath: m_LocalPosition.y
      value: -0.032000005
      objectReference: {fileID: 0}
    - target: {fileID: 6475768285827345566, guid: 6dfc5f0a5fe04f94ab15177720f4bf05,
        type: 3}
      propertyPath: m_LocalPosition.x
      value: 0.032000005
      objectReference: {fileID: 0}
    - target: {fileID: 6475768285827345566, guid: 6dfc5f0a5fe04f94ab15177720f4bf05,
        type: 3}
      propertyPath: m_LocalPosition.y
      value: -0.0000000018626451
      objectReference: {fileID: 0}
    - target: {fileID: 6475768286380468863, guid: 6dfc5f0a5fe04f94ab15177720f4bf05,
        type: 3}
      propertyPath: m_Name
      value: ButtonSix
      objectReference: {fileID: 0}
    - target: {fileID: 6475768286833687439, guid: 6dfc5f0a5fe04f94ab15177720f4bf05,
        type: 3}
      propertyPath: m_text
      value: Menu Six
      objectReference: {fileID: 0}
    - target: {fileID: 6475768286833687439, guid: 6dfc5f0a5fe04f94ab15177720f4bf05,
        type: 3}
      propertyPath: m_textInfo.lineCount
      value: 0
      objectReference: {fileID: 0}
    - target: {fileID: 6475768286833687439, guid: 6dfc5f0a5fe04f94ab15177720f4bf05,
        type: 3}
      propertyPath: m_textInfo.pageCount
      value: 0
      objectReference: {fileID: 0}
    - target: {fileID: 6475768286833687439, guid: 6dfc5f0a5fe04f94ab15177720f4bf05,
        type: 3}
      propertyPath: m_textInfo.wordCount
      value: 0
      objectReference: {fileID: 0}
    - target: {fileID: 6475768286833687439, guid: 6dfc5f0a5fe04f94ab15177720f4bf05,
        type: 3}
      propertyPath: m_textInfo.spaceCount
      value: 0
      objectReference: {fileID: 0}
    - target: {fileID: 6475768286833687439, guid: 6dfc5f0a5fe04f94ab15177720f4bf05,
        type: 3}
      propertyPath: m_havePropertiesChanged
      value: 0
      objectReference: {fileID: 0}
    - target: {fileID: 6475768286833687439, guid: 6dfc5f0a5fe04f94ab15177720f4bf05,
        type: 3}
      propertyPath: m_isInputParsingRequired
      value: 0
      objectReference: {fileID: 0}
    - target: {fileID: 6475768286833687439, guid: 6dfc5f0a5fe04f94ab15177720f4bf05,
        type: 3}
      propertyPath: m_textInfo.characterCount
      value: 0
      objectReference: {fileID: 0}
    - target: {fileID: 6475768286833687537, guid: 6dfc5f0a5fe04f94ab15177720f4bf05,
        type: 3}
      propertyPath: m_Mesh
      value: 
      objectReference: {fileID: 0}
    - target: {fileID: 7457904603363729046, guid: 6dfc5f0a5fe04f94ab15177720f4bf05,
        type: 3}
      propertyPath: m_LocalPosition.x
      value: -0.031999998
      objectReference: {fileID: 0}
    - target: {fileID: 7457904603363729046, guid: 6dfc5f0a5fe04f94ab15177720f4bf05,
        type: 3}
      propertyPath: m_LocalPosition.y
      value: -0.0000000018626451
      objectReference: {fileID: 0}
    - target: {fileID: 7457904604369537415, guid: 6dfc5f0a5fe04f94ab15177720f4bf05,
        type: 3}
      propertyPath: m_text
      value: Menu Four
      objectReference: {fileID: 0}
    - target: {fileID: 7457904604369537415, guid: 6dfc5f0a5fe04f94ab15177720f4bf05,
        type: 3}
      propertyPath: m_textInfo.lineCount
      value: 0
      objectReference: {fileID: 0}
    - target: {fileID: 7457904604369537415, guid: 6dfc5f0a5fe04f94ab15177720f4bf05,
        type: 3}
      propertyPath: m_textInfo.pageCount
      value: 0
      objectReference: {fileID: 0}
    - target: {fileID: 7457904604369537415, guid: 6dfc5f0a5fe04f94ab15177720f4bf05,
        type: 3}
      propertyPath: m_textInfo.wordCount
      value: 0
      objectReference: {fileID: 0}
    - target: {fileID: 7457904604369537415, guid: 6dfc5f0a5fe04f94ab15177720f4bf05,
        type: 3}
      propertyPath: m_textInfo.spaceCount
      value: 0
      objectReference: {fileID: 0}
    - target: {fileID: 7457904604369537415, guid: 6dfc5f0a5fe04f94ab15177720f4bf05,
        type: 3}
      propertyPath: m_havePropertiesChanged
      value: 0
      objectReference: {fileID: 0}
    - target: {fileID: 7457904604369537415, guid: 6dfc5f0a5fe04f94ab15177720f4bf05,
        type: 3}
      propertyPath: m_isInputParsingRequired
      value: 0
      objectReference: {fileID: 0}
    - target: {fileID: 7457904604369537415, guid: 6dfc5f0a5fe04f94ab15177720f4bf05,
        type: 3}
      propertyPath: m_textInfo.characterCount
      value: 0
      objectReference: {fileID: 0}
    - target: {fileID: 7457904604369537529, guid: 6dfc5f0a5fe04f94ab15177720f4bf05,
        type: 3}
      propertyPath: m_Mesh
      value: 
      objectReference: {fileID: 0}
    - target: {fileID: 7457904604990593143, guid: 6dfc5f0a5fe04f94ab15177720f4bf05,
        type: 3}
      propertyPath: m_Name
      value: ButtonFour
      objectReference: {fileID: 0}
    - target: {fileID: 7459335863129266358, guid: 6dfc5f0a5fe04f94ab15177720f4bf05,
        type: 3}
      propertyPath: m_IsActive
      value: 0
      objectReference: {fileID: 0}
    - target: {fileID: 7773655248262073540, guid: 6dfc5f0a5fe04f94ab15177720f4bf05,
        type: 3}
      propertyPath: iconQuadTexture
      value: 
      objectReference: {fileID: 2800000, guid: 114589bc5b891c3488cbb8607b6b9171, type: 3}
    - target: {fileID: 7823404504485184496, guid: 6dfc5f0a5fe04f94ab15177720f4bf05,
        type: 3}
      propertyPath: m_LocalPosition.x
      value: 0.0067000007
      objectReference: {fileID: 0}
    - target: {fileID: 7823404504485184496, guid: 6dfc5f0a5fe04f94ab15177720f4bf05,
        type: 3}
      propertyPath: m_LocalPosition.y
      value: -0.0324
      objectReference: {fileID: 0}
    - target: {fileID: 7906553909899379809, guid: 6dfc5f0a5fe04f94ab15177720f4bf05,
        type: 3}
      propertyPath: m_LocalScale.x
      value: 0.128
      objectReference: {fileID: 0}
    - target: {fileID: 7906553909899379809, guid: 6dfc5f0a5fe04f94ab15177720f4bf05,
        type: 3}
      propertyPath: m_LocalScale.y
      value: 0.128
      objectReference: {fileID: 0}
    - target: {fileID: 7906553909899379809, guid: 6dfc5f0a5fe04f94ab15177720f4bf05,
        type: 3}
      propertyPath: m_LocalPosition.x
      value: 0.0187
      objectReference: {fileID: 0}
    - target: {fileID: 7906553909899379809, guid: 6dfc5f0a5fe04f94ab15177720f4bf05,
        type: 3}
      propertyPath: m_LocalPosition.y
      value: -0.0192
      objectReference: {fileID: 0}
    - target: {fileID: 7915729865660284710, guid: 6dfc5f0a5fe04f94ab15177720f4bf05,
        type: 3}
      propertyPath: m_LocalPosition.x
      value: 0.0000000018626451
      objectReference: {fileID: 0}
    - target: {fileID: 7915729865660284710, guid: 6dfc5f0a5fe04f94ab15177720f4bf05,
        type: 3}
      propertyPath: m_LocalPosition.y
      value: 0.031999998
      objectReference: {fileID: 0}
    - target: {fileID: 7915729866667665463, guid: 6dfc5f0a5fe04f94ab15177720f4bf05,
        type: 3}
      propertyPath: m_text
      value: Menu Two
      objectReference: {fileID: 0}
    - target: {fileID: 7915729866667665463, guid: 6dfc5f0a5fe04f94ab15177720f4bf05,
        type: 3}
      propertyPath: m_textInfo.lineCount
      value: 0
      objectReference: {fileID: 0}
    - target: {fileID: 7915729866667665463, guid: 6dfc5f0a5fe04f94ab15177720f4bf05,
        type: 3}
      propertyPath: m_textInfo.pageCount
      value: 0
      objectReference: {fileID: 0}
    - target: {fileID: 7915729866667665463, guid: 6dfc5f0a5fe04f94ab15177720f4bf05,
        type: 3}
      propertyPath: m_textInfo.wordCount
      value: 0
      objectReference: {fileID: 0}
    - target: {fileID: 7915729866667665463, guid: 6dfc5f0a5fe04f94ab15177720f4bf05,
        type: 3}
      propertyPath: m_textInfo.spaceCount
      value: 0
      objectReference: {fileID: 0}
    - target: {fileID: 7915729866667665463, guid: 6dfc5f0a5fe04f94ab15177720f4bf05,
        type: 3}
      propertyPath: m_havePropertiesChanged
      value: 0
      objectReference: {fileID: 0}
    - target: {fileID: 7915729866667665463, guid: 6dfc5f0a5fe04f94ab15177720f4bf05,
        type: 3}
      propertyPath: m_isInputParsingRequired
      value: 0
      objectReference: {fileID: 0}
    - target: {fileID: 7915729866667665463, guid: 6dfc5f0a5fe04f94ab15177720f4bf05,
        type: 3}
      propertyPath: m_textInfo.characterCount
      value: 0
      objectReference: {fileID: 0}
    - target: {fileID: 7915729866667665481, guid: 6dfc5f0a5fe04f94ab15177720f4bf05,
        type: 3}
      propertyPath: m_Mesh
      value: 
      objectReference: {fileID: 0}
    - target: {fileID: 7915729867288197575, guid: 6dfc5f0a5fe04f94ab15177720f4bf05,
        type: 3}
      propertyPath: m_Name
      value: ButtonTwo
      objectReference: {fileID: 0}
    - target: {fileID: 8118008111284429413, guid: 6dfc5f0a5fe04f94ab15177720f4bf05,
        type: 3}
      propertyPath: m_LocalPosition.x
      value: -0.031999998
      objectReference: {fileID: 0}
    - target: {fileID: 8118008111284429413, guid: 6dfc5f0a5fe04f94ab15177720f4bf05,
        type: 3}
      propertyPath: m_LocalPosition.y
      value: 0.031999998
      objectReference: {fileID: 0}
    - target: {fileID: 8118008112290837770, guid: 6dfc5f0a5fe04f94ab15177720f4bf05,
        type: 3}
      propertyPath: m_Mesh
      value: 
      objectReference: {fileID: 0}
    - target: {fileID: 8118008112290837876, guid: 6dfc5f0a5fe04f94ab15177720f4bf05,
        type: 3}
      propertyPath: m_textInfo.lineCount
      value: 0
      objectReference: {fileID: 0}
    - target: {fileID: 8118008112290837876, guid: 6dfc5f0a5fe04f94ab15177720f4bf05,
        type: 3}
      propertyPath: m_textInfo.pageCount
      value: 0
      objectReference: {fileID: 0}
    - target: {fileID: 8118008112290837876, guid: 6dfc5f0a5fe04f94ab15177720f4bf05,
        type: 3}
      propertyPath: m_textInfo.wordCount
      value: 0
      objectReference: {fileID: 0}
    - target: {fileID: 8118008112290837876, guid: 6dfc5f0a5fe04f94ab15177720f4bf05,
        type: 3}
      propertyPath: m_textInfo.spaceCount
      value: 0
      objectReference: {fileID: 0}
    - target: {fileID: 8118008112290837876, guid: 6dfc5f0a5fe04f94ab15177720f4bf05,
        type: 3}
      propertyPath: m_textInfo.characterCount
      value: 0
      objectReference: {fileID: 0}
    - target: {fileID: 8323502268126346333, guid: 6dfc5f0a5fe04f94ab15177720f4bf05,
        type: 3}
      propertyPath: m_LocalPosition.x
      value: 0.0067
      objectReference: {fileID: 0}
    m_RemovedComponents: []
  m_SourcePrefab: {fileID: 100100000, guid: 6dfc5f0a5fe04f94ab15177720f4bf05, type: 3}
--- !u!4 &2975171669690811569 stripped
Transform:
  m_CorrespondingSourceObject: {fileID: 381806469407776481, guid: 6dfc5f0a5fe04f94ab15177720f4bf05,
    type: 3}
  m_PrefabInstance: {fileID: 3172113211659197008}
  m_PrefabAsset: {fileID: 0}
--- !u!4 &3432580279223920010 stripped
Transform:
  m_CorrespondingSourceObject: {fileID: 263290957567508442, guid: 6dfc5f0a5fe04f94ab15177720f4bf05,
    type: 3}
  m_PrefabInstance: {fileID: 3172113211659197008}
  m_PrefabAsset: {fileID: 0}
--- !u!1001 &4972606301337347178
PrefabInstance:
  m_ObjectHideFlags: 0
  serializedVersion: 2
  m_Modification:
    m_TransformParent: {fileID: 2975171669690811569}
    m_Modifications:
    - target: {fileID: 1874729665501627384, guid: 3f1f46cbecbe08e46a303ccfdb5b498a,
        type: 3}
      propertyPath: m_IsActive
      value: 0
      objectReference: {fileID: 0}
    - target: {fileID: 2204069621426241315, guid: 3f1f46cbecbe08e46a303ccfdb5b498a,
        type: 3}
      propertyPath: m_Name
      value: ButtonNine
      objectReference: {fileID: 0}
    - target: {fileID: 2204069621878992557, guid: 3f1f46cbecbe08e46a303ccfdb5b498a,
        type: 3}
      propertyPath: m_Mesh
      value: 
      objectReference: {fileID: 0}
    - target: {fileID: 2204069621878992595, guid: 3f1f46cbecbe08e46a303ccfdb5b498a,
        type: 3}
      propertyPath: m_text
      value: Menu Nine
      objectReference: {fileID: 0}
    - target: {fileID: 2204069621878992595, guid: 3f1f46cbecbe08e46a303ccfdb5b498a,
        type: 3}
      propertyPath: m_textInfo.lineCount
      value: 1
      objectReference: {fileID: 0}
    - target: {fileID: 2204069621878992595, guid: 3f1f46cbecbe08e46a303ccfdb5b498a,
        type: 3}
      propertyPath: m_textInfo.pageCount
      value: 1
      objectReference: {fileID: 0}
    - target: {fileID: 2204069621878992595, guid: 3f1f46cbecbe08e46a303ccfdb5b498a,
        type: 3}
      propertyPath: m_textInfo.wordCount
      value: 2
      objectReference: {fileID: 0}
    - target: {fileID: 2204069621878992595, guid: 3f1f46cbecbe08e46a303ccfdb5b498a,
        type: 3}
      propertyPath: m_textInfo.spaceCount
      value: 1
      objectReference: {fileID: 0}
    - target: {fileID: 2204069621878992595, guid: 3f1f46cbecbe08e46a303ccfdb5b498a,
        type: 3}
      propertyPath: m_havePropertiesChanged
      value: 0
      objectReference: {fileID: 0}
    - target: {fileID: 2204069621878992595, guid: 3f1f46cbecbe08e46a303ccfdb5b498a,
        type: 3}
      propertyPath: m_isInputParsingRequired
      value: 0
      objectReference: {fileID: 0}
    - target: {fileID: 2204069621878992595, guid: 3f1f46cbecbe08e46a303ccfdb5b498a,
        type: 3}
      propertyPath: m_textInfo.characterCount
      value: 9
      objectReference: {fileID: 0}
    - target: {fileID: 2204069623020599746, guid: 3f1f46cbecbe08e46a303ccfdb5b498a,
        type: 3}
      propertyPath: m_RootOrder
      value: 8
      objectReference: {fileID: 0}
    - target: {fileID: 2204069623020599746, guid: 3f1f46cbecbe08e46a303ccfdb5b498a,
        type: 3}
      propertyPath: m_LocalScale.x
      value: 1
      objectReference: {fileID: 0}
    - target: {fileID: 2204069623020599746, guid: 3f1f46cbecbe08e46a303ccfdb5b498a,
        type: 3}
      propertyPath: m_LocalScale.y
      value: 1
      objectReference: {fileID: 0}
    - target: {fileID: 2204069623020599746, guid: 3f1f46cbecbe08e46a303ccfdb5b498a,
        type: 3}
      propertyPath: m_LocalPosition.x
      value: 0.032000005
      objectReference: {fileID: 0}
    - target: {fileID: 2204069623020599746, guid: 3f1f46cbecbe08e46a303ccfdb5b498a,
        type: 3}
      propertyPath: m_LocalPosition.y
      value: -0.032000005
      objectReference: {fileID: 0}
    - target: {fileID: 2204069623020599746, guid: 3f1f46cbecbe08e46a303ccfdb5b498a,
        type: 3}
      propertyPath: m_LocalPosition.z
      value: 1
      objectReference: {fileID: 0}
    - target: {fileID: 2204069623020599746, guid: 3f1f46cbecbe08e46a303ccfdb5b498a,
        type: 3}
      propertyPath: m_LocalRotation.w
      value: 1
      objectReference: {fileID: 0}
    - target: {fileID: 2204069623020599746, guid: 3f1f46cbecbe08e46a303ccfdb5b498a,
        type: 3}
      propertyPath: m_LocalRotation.x
      value: -0
      objectReference: {fileID: 0}
    - target: {fileID: 2204069623020599746, guid: 3f1f46cbecbe08e46a303ccfdb5b498a,
        type: 3}
      propertyPath: m_LocalRotation.y
      value: -0
      objectReference: {fileID: 0}
    - target: {fileID: 2204069623020599746, guid: 3f1f46cbecbe08e46a303ccfdb5b498a,
        type: 3}
      propertyPath: m_LocalRotation.z
      value: -0
      objectReference: {fileID: 0}
    - target: {fileID: 2204069623020599746, guid: 3f1f46cbecbe08e46a303ccfdb5b498a,
        type: 3}
      propertyPath: m_LocalEulerAnglesHint.x
      value: 0
      objectReference: {fileID: 0}
    - target: {fileID: 2204069623020599746, guid: 3f1f46cbecbe08e46a303ccfdb5b498a,
        type: 3}
      propertyPath: m_LocalEulerAnglesHint.y
      value: 0
      objectReference: {fileID: 0}
    - target: {fileID: 2204069623020599746, guid: 3f1f46cbecbe08e46a303ccfdb5b498a,
        type: 3}
      propertyPath: m_LocalEulerAnglesHint.z
      value: 0
      objectReference: {fileID: 0}
    - target: {fileID: 3954648794444109128, guid: 3f1f46cbecbe08e46a303ccfdb5b498a,
        type: 3}
      propertyPath: m_IsActive
      value: 0
      objectReference: {fileID: 0}
    - target: {fileID: 7060011145322376313, guid: 3f1f46cbecbe08e46a303ccfdb5b498a,
        type: 3}
      propertyPath: m_text
      value: Say "Toggle Profiler"
      objectReference: {fileID: 0}
    - target: {fileID: 7060011145322376313, guid: 3f1f46cbecbe08e46a303ccfdb5b498a,
        type: 3}
      propertyPath: m_textInfo.lineCount
      value: 2
      objectReference: {fileID: 0}
    - target: {fileID: 7060011145322376313, guid: 3f1f46cbecbe08e46a303ccfdb5b498a,
        type: 3}
      propertyPath: m_textInfo.wordCount
      value: 3
      objectReference: {fileID: 0}
    - target: {fileID: 7060011145322376313, guid: 3f1f46cbecbe08e46a303ccfdb5b498a,
        type: 3}
      propertyPath: m_textInfo.spaceCount
      value: 2
      objectReference: {fileID: 0}
    - target: {fileID: 7060011145322376313, guid: 3f1f46cbecbe08e46a303ccfdb5b498a,
        type: 3}
      propertyPath: m_havePropertiesChanged
      value: 1
      objectReference: {fileID: 0}
    - target: {fileID: 7060011145322376313, guid: 3f1f46cbecbe08e46a303ccfdb5b498a,
        type: 3}
      propertyPath: m_isInputParsingRequired
      value: 1
      objectReference: {fileID: 0}
    - target: {fileID: 7060011145322376313, guid: 3f1f46cbecbe08e46a303ccfdb5b498a,
        type: 3}
      propertyPath: m_textInfo.characterCount
      value: 21
      objectReference: {fileID: 0}
    - target: {fileID: 7060011145322376313, guid: 3f1f46cbecbe08e46a303ccfdb5b498a,
        type: 3}
      propertyPath: m_firstOverflowCharacterIndex
      value: 12
      objectReference: {fileID: 0}
    - target: {fileID: 8405082116546204954, guid: 3f1f46cbecbe08e46a303ccfdb5b498a,
        type: 3}
      propertyPath: iconQuadTexture
      value: 
      objectReference: {fileID: 2800000, guid: 0771cd1b5e4131e45afe250cd1713737, type: 3}
    - target: {fileID: 8779034279059886464, guid: 3f1f46cbecbe08e46a303ccfdb5b498a,
        type: 3}
      propertyPath: OnClick.m_PersistentCalls.m_Calls.Array.size
      value: 2
      objectReference: {fileID: 0}
    - target: {fileID: 8779034279059886464, guid: 3f1f46cbecbe08e46a303ccfdb5b498a,
        type: 3}
      propertyPath: OnClick.m_PersistentCalls.m_Calls.Array.data[1].m_Mode
      value: 1
      objectReference: {fileID: 0}
    - target: {fileID: 8779034279059886464, guid: 3f1f46cbecbe08e46a303ccfdb5b498a,
        type: 3}
      propertyPath: OnClick.m_PersistentCalls.m_Calls.Array.data[1].m_CallState
      value: 2
      objectReference: {fileID: 0}
    - target: {fileID: 8779034279059886464, guid: 3f1f46cbecbe08e46a303ccfdb5b498a,
        type: 3}
      propertyPath: OnClick.m_PersistentCalls.m_Calls.Array.data[0].m_MethodName
      value: ToggleRecording
      objectReference: {fileID: 0}
    - target: {fileID: 8779034279059886464, guid: 3f1f46cbecbe08e46a303ccfdb5b498a,
        type: 3}
      propertyPath: OnClick.m_PersistentCalls.m_Calls.Array.data[1].m_MethodName
      value: SaveRecordedInput
      objectReference: {fileID: 0}
    - target: {fileID: 8779034279059886464, guid: 3f1f46cbecbe08e46a303ccfdb5b498a,
        type: 3}
      propertyPath: OnClick.m_PersistentCalls.m_Calls.Array.data[1].m_Arguments.m_ObjectArgumentAssemblyTypeName
      value: UnityEngine.Object, UnityEngine
      objectReference: {fileID: 0}
    m_RemovedComponents: []
  m_SourcePrefab: {fileID: 100100000, guid: 3f1f46cbecbe08e46a303ccfdb5b498a, type: 3}
